Linked: (/home/robotino/robotino_ws/devel/.private/move_slow_and_clear/lib/libmove_slow_and_clear.so, /home/robotino/robotino_ws/devel/lib/libmove_slow_and_clear.so)
Linked: (/home/robotino/robotino_ws/devel/.private/move_slow_and_clear/lib/pkgconfig/move_slow_and_clear.pc, /home/robotino/robotino_ws/devel/lib/pkgconfig/move_slow_and_clear.pc)
Linked: (/home/robotino/robotino_ws/devel/.private/move_slow_and_clear/share/move_slow_and_clear/cmake/move_slow_and_clearConfig.cmake, /home/robotino/robotino_ws/devel/share/move_slow_and_clear/cmake/move_slow_and_clearConfig.cmake)
Linked: (/home/robotino/robotino_ws/devel/.private/move_slow_and_clear/share/move_slow_and_clear/cmake/move_slow_and_clearConfig-version.cmake, /home/robotino/robotino_ws/devel/share/move_slow_and_clear/cmake/move_slow_and_clearConfig-version.cmake)
