Linked: (/home/robotino/robotino_ws/devel/.private/robotino_teleop/lib/pkgconfig/robotino_teleop.pc, /home/robotino/robotino_ws/devel/lib/pkgconfig/robotino_teleop.pc)
Linked: (/home/robotino/robotino_ws/devel/.private/robotino_teleop/lib/robotino_teleop/joystick_teleop_node, /home/robotino/robotino_ws/devel/lib/robotino_teleop/joystick_teleop_node)
Linked: (/home/robotino/robotino_ws/devel/.private/robotino_teleop/lib/robotino_teleop/keyboard_teleop_node, /home/robotino/robotino_ws/devel/lib/robotino_teleop/keyboard_teleop_node)
Linked: (/home/robotino/robotino_ws/devel/.private/robotino_teleop/share/robotino_teleop/cmake/robotino_teleopConfig-version.cmake, /home/robotino/robotino_ws/devel/share/robotino_teleop/cmake/robotino_teleopConfig-version.cmake)
Linked: (/home/robotino/robotino_ws/devel/.private/robotino_teleop/share/robotino_teleop/cmake/robotino_teleopConfig.cmake, /home/robotino/robotino_ws/devel/share/robotino_teleop/cmake/robotino_teleopConfig.cmake)
