Linked: (/home/robotino/robotino_ws/devel/.private/robotino_msgs/lib/python2.7/dist-packages/robotino_msgs/__init__.py, /home/robotino/robotino_ws/devel/lib/python2.7/dist-packages/robotino_msgs/__init__.py)
Linked: (/home/robotino/robotino_ws/devel/.private/robotino_msgs/lib/python2.7/dist-packages/robotino_msgs/msg/_SetGrapplerAxes.py, /home/robotino/robotino_ws/devel/lib/python2.7/dist-packages/robotino_msgs/msg/_SetGrapplerAxes.py)
Linked: (/home/robotino/robotino_ws/devel/.private/robotino_msgs/lib/python2.7/dist-packages/robotino_msgs/msg/_EncoderReadings.py, /home/robotino/robotino_ws/devel/lib/python2.7/dist-packages/robotino_msgs/msg/_EncoderReadings.py)
Linked: (/home/robotino/robotino_ws/devel/.private/robotino_msgs/lib/python2.7/dist-packages/robotino_msgs/msg/__init__.py, /home/robotino/robotino_ws/devel/lib/python2.7/dist-packages/robotino_msgs/msg/__init__.py)
Linked: (/home/robotino/robotino_ws/devel/.private/robotino_msgs/lib/python2.7/dist-packages/robotino_msgs/msg/_SetGrapplerAxis.py, /home/robotino/robotino_ws/devel/lib/python2.7/dist-packages/robotino_msgs/msg/_SetGrapplerAxis.py)
Linked: (/home/robotino/robotino_ws/devel/.private/robotino_msgs/lib/python2.7/dist-packages/robotino_msgs/msg/_PowerReadings.py, /home/robotino/robotino_ws/devel/lib/python2.7/dist-packages/robotino_msgs/msg/_PowerReadings.py)
Linked: (/home/robotino/robotino_ws/devel/.private/robotino_msgs/lib/python2.7/dist-packages/robotino_msgs/msg/_BHAReadings.py, /home/robotino/robotino_ws/devel/lib/python2.7/dist-packages/robotino_msgs/msg/_BHAReadings.py)
Linked: (/home/robotino/robotino_ws/devel/.private/robotino_msgs/lib/python2.7/dist-packages/robotino_msgs/msg/_GripperState.py, /home/robotino/robotino_ws/devel/lib/python2.7/dist-packages/robotino_msgs/msg/_GripperState.py)
Linked: (/home/robotino/robotino_ws/devel/.private/robotino_msgs/lib/python2.7/dist-packages/robotino_msgs/msg/_NorthStarReadings.py, /home/robotino/robotino_ws/devel/lib/python2.7/dist-packages/robotino_msgs/msg/_NorthStarReadings.py)
Linked: (/home/robotino/robotino_ws/devel/.private/robotino_msgs/lib/python2.7/dist-packages/robotino_msgs/msg/_MotorReadings.py, /home/robotino/robotino_ws/devel/lib/python2.7/dist-packages/robotino_msgs/msg/_MotorReadings.py)
Linked: (/home/robotino/robotino_ws/devel/.private/robotino_msgs/lib/python2.7/dist-packages/robotino_msgs/msg/_SetBHAPressures.py, /home/robotino/robotino_ws/devel/lib/python2.7/dist-packages/robotino_msgs/msg/_SetBHAPressures.py)
Linked: (/home/robotino/robotino_ws/devel/.private/robotino_msgs/lib/python2.7/dist-packages/robotino_msgs/msg/_DigitalReadings.py, /home/robotino/robotino_ws/devel/lib/python2.7/dist-packages/robotino_msgs/msg/_DigitalReadings.py)
Linked: (/home/robotino/robotino_ws/devel/.private/robotino_msgs/lib/python2.7/dist-packages/robotino_msgs/msg/_GrapplerReadings.py, /home/robotino/robotino_ws/devel/lib/python2.7/dist-packages/robotino_msgs/msg/_GrapplerReadings.py)
Linked: (/home/robotino/robotino_ws/devel/.private/robotino_msgs/lib/python2.7/dist-packages/robotino_msgs/msg/_AnalogReadings.py, /home/robotino/robotino_ws/devel/lib/python2.7/dist-packages/robotino_msgs/msg/_AnalogReadings.py)
Linked: (/home/robotino/robotino_ws/devel/.private/robotino_msgs/lib/python2.7/dist-packages/robotino_msgs/srv/_SetGripperState.py, /home/robotino/robotino_ws/devel/lib/python2.7/dist-packages/robotino_msgs/srv/_SetGripperState.py)
Linked: (/home/robotino/robotino_ws/devel/.private/robotino_msgs/lib/python2.7/dist-packages/robotino_msgs/srv/__init__.py, /home/robotino/robotino_ws/devel/lib/python2.7/dist-packages/robotino_msgs/srv/__init__.py)
Linked: (/home/robotino/robotino_ws/devel/.private/robotino_msgs/lib/python2.7/dist-packages/robotino_msgs/srv/_ResetOdometry.py, /home/robotino/robotino_ws/devel/lib/python2.7/dist-packages/robotino_msgs/srv/_ResetOdometry.py)
Linked: (/home/robotino/robotino_ws/devel/.private/robotino_msgs/lib/python2.7/dist-packages/robotino_msgs/srv/_SetEncoderPosition.py, /home/robotino/robotino_ws/devel/lib/python2.7/dist-packages/robotino_msgs/srv/_SetEncoderPosition.py)
Linked: (/home/robotino/robotino_ws/devel/.private/robotino_msgs/lib/pkgconfig/robotino_msgs.pc, /home/robotino/robotino_ws/devel/lib/pkgconfig/robotino_msgs.pc)
Linked: (/home/robotino/robotino_ws/devel/.private/robotino_msgs/share/roseus/ros/robotino_msgs/manifest.l, /home/robotino/robotino_ws/devel/share/roseus/ros/robotino_msgs/manifest.l)
Linked: (/home/robotino/robotino_ws/devel/.private/robotino_msgs/share/roseus/ros/robotino_msgs/msg/PowerReadings.l, /home/robotino/robotino_ws/devel/share/roseus/ros/robotino_msgs/msg/PowerReadings.l)
Linked: (/home/robotino/robotino_ws/devel/.private/robotino_msgs/share/roseus/ros/robotino_msgs/msg/AnalogReadings.l, /home/robotino/robotino_ws/devel/share/roseus/ros/robotino_msgs/msg/AnalogReadings.l)
Linked: (/home/robotino/robotino_ws/devel/.private/robotino_msgs/share/roseus/ros/robotino_msgs/msg/SetGrapplerAxis.l, /home/robotino/robotino_ws/devel/share/roseus/ros/robotino_msgs/msg/SetGrapplerAxis.l)
Linked: (/home/robotino/robotino_ws/devel/.private/robotino_msgs/share/roseus/ros/robotino_msgs/msg/GrapplerReadings.l, /home/robotino/robotino_ws/devel/share/roseus/ros/robotino_msgs/msg/GrapplerReadings.l)
Linked: (/home/robotino/robotino_ws/devel/.private/robotino_msgs/share/roseus/ros/robotino_msgs/msg/NorthStarReadings.l, /home/robotino/robotino_ws/devel/share/roseus/ros/robotino_msgs/msg/NorthStarReadings.l)
Linked: (/home/robotino/robotino_ws/devel/.private/robotino_msgs/share/roseus/ros/robotino_msgs/msg/MotorReadings.l, /home/robotino/robotino_ws/devel/share/roseus/ros/robotino_msgs/msg/MotorReadings.l)
Linked: (/home/robotino/robotino_ws/devel/.private/robotino_msgs/share/roseus/ros/robotino_msgs/msg/BHAReadings.l, /home/robotino/robotino_ws/devel/share/roseus/ros/robotino_msgs/msg/BHAReadings.l)
Linked: (/home/robotino/robotino_ws/devel/.private/robotino_msgs/share/roseus/ros/robotino_msgs/msg/DigitalReadings.l, /home/robotino/robotino_ws/devel/share/roseus/ros/robotino_msgs/msg/DigitalReadings.l)
Linked: (/home/robotino/robotino_ws/devel/.private/robotino_msgs/share/roseus/ros/robotino_msgs/msg/SetGrapplerAxes.l, /home/robotino/robotino_ws/devel/share/roseus/ros/robotino_msgs/msg/SetGrapplerAxes.l)
Linked: (/home/robotino/robotino_ws/devel/.private/robotino_msgs/share/roseus/ros/robotino_msgs/msg/GripperState.l, /home/robotino/robotino_ws/devel/share/roseus/ros/robotino_msgs/msg/GripperState.l)
Linked: (/home/robotino/robotino_ws/devel/.private/robotino_msgs/share/roseus/ros/robotino_msgs/msg/EncoderReadings.l, /home/robotino/robotino_ws/devel/share/roseus/ros/robotino_msgs/msg/EncoderReadings.l)
Linked: (/home/robotino/robotino_ws/devel/.private/robotino_msgs/share/roseus/ros/robotino_msgs/msg/SetBHAPressures.l, /home/robotino/robotino_ws/devel/share/roseus/ros/robotino_msgs/msg/SetBHAPressures.l)
Linked: (/home/robotino/robotino_ws/devel/.private/robotino_msgs/share/roseus/ros/robotino_msgs/srv/ResetOdometry.l, /home/robotino/robotino_ws/devel/share/roseus/ros/robotino_msgs/srv/ResetOdometry.l)
Linked: (/home/robotino/robotino_ws/devel/.private/robotino_msgs/share/roseus/ros/robotino_msgs/srv/SetGripperState.l, /home/robotino/robotino_ws/devel/share/roseus/ros/robotino_msgs/srv/SetGripperState.l)
Linked: (/home/robotino/robotino_ws/devel/.private/robotino_msgs/share/roseus/ros/robotino_msgs/srv/SetEncoderPosition.l, /home/robotino/robotino_ws/devel/share/roseus/ros/robotino_msgs/srv/SetEncoderPosition.l)
Linked: (/home/robotino/robotino_ws/devel/.private/robotino_msgs/share/robotino_msgs/cmake/robotino_msgs-msg-extras.cmake, /home/robotino/robotino_ws/devel/share/robotino_msgs/cmake/robotino_msgs-msg-extras.cmake)
Linked: (/home/robotino/robotino_ws/devel/.private/robotino_msgs/share/robotino_msgs/cmake/robotino_msgsConfig.cmake, /home/robotino/robotino_ws/devel/share/robotino_msgs/cmake/robotino_msgsConfig.cmake)
Linked: (/home/robotino/robotino_ws/devel/.private/robotino_msgs/share/robotino_msgs/cmake/robotino_msgsConfig-version.cmake, /home/robotino/robotino_ws/devel/share/robotino_msgs/cmake/robotino_msgsConfig-version.cmake)
Linked: (/home/robotino/robotino_ws/devel/.private/robotino_msgs/share/robotino_msgs/cmake/robotino_msgs-msg-paths.cmake, /home/robotino/robotino_ws/devel/share/robotino_msgs/cmake/robotino_msgs-msg-paths.cmake)
Linked: (/home/robotino/robotino_ws/devel/.private/robotino_msgs/share/common-lisp/ros/robotino_msgs/msg/BHAReadings.lisp, /home/robotino/robotino_ws/devel/share/common-lisp/ros/robotino_msgs/msg/BHAReadings.lisp)
Linked: (/home/robotino/robotino_ws/devel/.private/robotino_msgs/share/common-lisp/ros/robotino_msgs/msg/_package_NorthStarReadings.lisp, /home/robotino/robotino_ws/devel/share/common-lisp/ros/robotino_msgs/msg/_package_NorthStarReadings.lisp)
Linked: (/home/robotino/robotino_ws/devel/.private/robotino_msgs/share/common-lisp/ros/robotino_msgs/msg/EncoderReadings.lisp, /home/robotino/robotino_ws/devel/share/common-lisp/ros/robotino_msgs/msg/EncoderReadings.lisp)
Linked: (/home/robotino/robotino_ws/devel/.private/robotino_msgs/share/common-lisp/ros/robotino_msgs/msg/_package_GrapplerReadings.lisp, /home/robotino/robotino_ws/devel/share/common-lisp/ros/robotino_msgs/msg/_package_GrapplerReadings.lisp)
Linked: (/home/robotino/robotino_ws/devel/.private/robotino_msgs/share/common-lisp/ros/robotino_msgs/msg/DigitalReadings.lisp, /home/robotino/robotino_ws/devel/share/common-lisp/ros/robotino_msgs/msg/DigitalReadings.lisp)
Linked: (/home/robotino/robotino_ws/devel/.private/robotino_msgs/share/common-lisp/ros/robotino_msgs/msg/_package_AnalogReadings.lisp, /home/robotino/robotino_ws/devel/share/common-lisp/ros/robotino_msgs/msg/_package_AnalogReadings.lisp)
Linked: (/home/robotino/robotino_ws/devel/.private/robotino_msgs/share/common-lisp/ros/robotino_msgs/msg/AnalogReadings.lisp, /home/robotino/robotino_ws/devel/share/common-lisp/ros/robotino_msgs/msg/AnalogReadings.lisp)
Linked: (/home/robotino/robotino_ws/devel/.private/robotino_msgs/share/common-lisp/ros/robotino_msgs/msg/NorthStarReadings.lisp, /home/robotino/robotino_ws/devel/share/common-lisp/ros/robotino_msgs/msg/NorthStarReadings.lisp)
Linked: (/home/robotino/robotino_ws/devel/.private/robotino_msgs/share/common-lisp/ros/robotino_msgs/msg/_package_MotorReadings.lisp, /home/robotino/robotino_ws/devel/share/common-lisp/ros/robotino_msgs/msg/_package_MotorReadings.lisp)
Linked: (/home/robotino/robotino_ws/devel/.private/robotino_msgs/share/common-lisp/ros/robotino_msgs/msg/GripperState.lisp, /home/robotino/robotino_ws/devel/share/common-lisp/ros/robotino_msgs/msg/GripperState.lisp)
Linked: (/home/robotino/robotino_ws/devel/.private/robotino_msgs/share/common-lisp/ros/robotino_msgs/msg/_package_BHAReadings.lisp, /home/robotino/robotino_ws/devel/share/common-lisp/ros/robotino_msgs/msg/_package_BHAReadings.lisp)
Linked: (/home/robotino/robotino_ws/devel/.private/robotino_msgs/share/common-lisp/ros/robotino_msgs/msg/_package_SetBHAPressures.lisp, /home/robotino/robotino_ws/devel/share/common-lisp/ros/robotino_msgs/msg/_package_SetBHAPressures.lisp)
Linked: (/home/robotino/robotino_ws/devel/.private/robotino_msgs/share/common-lisp/ros/robotino_msgs/msg/_package_GripperState.lisp, /home/robotino/robotino_ws/devel/share/common-lisp/ros/robotino_msgs/msg/_package_GripperState.lisp)
Linked: (/home/robotino/robotino_ws/devel/.private/robotino_msgs/share/common-lisp/ros/robotino_msgs/msg/SetGrapplerAxes.lisp, /home/robotino/robotino_ws/devel/share/common-lisp/ros/robotino_msgs/msg/SetGrapplerAxes.lisp)
Linked: (/home/robotino/robotino_ws/devel/.private/robotino_msgs/share/common-lisp/ros/robotino_msgs/msg/_package_PowerReadings.lisp, /home/robotino/robotino_ws/devel/share/common-lisp/ros/robotino_msgs/msg/_package_PowerReadings.lisp)
Linked: (/home/robotino/robotino_ws/devel/.private/robotino_msgs/share/common-lisp/ros/robotino_msgs/msg/_package_EncoderReadings.lisp, /home/robotino/robotino_ws/devel/share/common-lisp/ros/robotino_msgs/msg/_package_EncoderReadings.lisp)
Linked: (/home/robotino/robotino_ws/devel/.private/robotino_msgs/share/common-lisp/ros/robotino_msgs/msg/MotorReadings.lisp, /home/robotino/robotino_ws/devel/share/common-lisp/ros/robotino_msgs/msg/MotorReadings.lisp)
Linked: (/home/robotino/robotino_ws/devel/.private/robotino_msgs/share/common-lisp/ros/robotino_msgs/msg/_package.lisp, /home/robotino/robotino_ws/devel/share/common-lisp/ros/robotino_msgs/msg/_package.lisp)
Linked: (/home/robotino/robotino_ws/devel/.private/robotino_msgs/share/common-lisp/ros/robotino_msgs/msg/PowerReadings.lisp, /home/robotino/robotino_ws/devel/share/common-lisp/ros/robotino_msgs/msg/PowerReadings.lisp)
Linked: (/home/robotino/robotino_ws/devel/.private/robotino_msgs/share/common-lisp/ros/robotino_msgs/msg/_package_DigitalReadings.lisp, /home/robotino/robotino_ws/devel/share/common-lisp/ros/robotino_msgs/msg/_package_DigitalReadings.lisp)
Linked: (/home/robotino/robotino_ws/devel/.private/robotino_msgs/share/common-lisp/ros/robotino_msgs/msg/SetGrapplerAxis.lisp, /home/robotino/robotino_ws/devel/share/common-lisp/ros/robotino_msgs/msg/SetGrapplerAxis.lisp)
Linked: (/home/robotino/robotino_ws/devel/.private/robotino_msgs/share/common-lisp/ros/robotino_msgs/msg/_package_SetGrapplerAxis.lisp, /home/robotino/robotino_ws/devel/share/common-lisp/ros/robotino_msgs/msg/_package_SetGrapplerAxis.lisp)
Linked: (/home/robotino/robotino_ws/devel/.private/robotino_msgs/share/common-lisp/ros/robotino_msgs/msg/robotino_msgs-msg.asd, /home/robotino/robotino_ws/devel/share/common-lisp/ros/robotino_msgs/msg/robotino_msgs-msg.asd)
Linked: (/home/robotino/robotino_ws/devel/.private/robotino_msgs/share/common-lisp/ros/robotino_msgs/msg/_package_SetGrapplerAxes.lisp, /home/robotino/robotino_ws/devel/share/common-lisp/ros/robotino_msgs/msg/_package_SetGrapplerAxes.lisp)
Linked: (/home/robotino/robotino_ws/devel/.private/robotino_msgs/share/common-lisp/ros/robotino_msgs/msg/SetBHAPressures.lisp, /home/robotino/robotino_ws/devel/share/common-lisp/ros/robotino_msgs/msg/SetBHAPressures.lisp)
Linked: (/home/robotino/robotino_ws/devel/.private/robotino_msgs/share/common-lisp/ros/robotino_msgs/msg/GrapplerReadings.lisp, /home/robotino/robotino_ws/devel/share/common-lisp/ros/robotino_msgs/msg/GrapplerReadings.lisp)
Linked: (/home/robotino/robotino_ws/devel/.private/robotino_msgs/share/common-lisp/ros/robotino_msgs/srv/_package_SetGripperState.lisp, /home/robotino/robotino_ws/devel/share/common-lisp/ros/robotino_msgs/srv/_package_SetGripperState.lisp)
Linked: (/home/robotino/robotino_ws/devel/.private/robotino_msgs/share/common-lisp/ros/robotino_msgs/srv/_package_ResetOdometry.lisp, /home/robotino/robotino_ws/devel/share/common-lisp/ros/robotino_msgs/srv/_package_ResetOdometry.lisp)
Linked: (/home/robotino/robotino_ws/devel/.private/robotino_msgs/share/common-lisp/ros/robotino_msgs/srv/ResetOdometry.lisp, /home/robotino/robotino_ws/devel/share/common-lisp/ros/robotino_msgs/srv/ResetOdometry.lisp)
Linked: (/home/robotino/robotino_ws/devel/.private/robotino_msgs/share/common-lisp/ros/robotino_msgs/srv/SetGripperState.lisp, /home/robotino/robotino_ws/devel/share/common-lisp/ros/robotino_msgs/srv/SetGripperState.lisp)
Linked: (/home/robotino/robotino_ws/devel/.private/robotino_msgs/share/common-lisp/ros/robotino_msgs/srv/_package.lisp, /home/robotino/robotino_ws/devel/share/common-lisp/ros/robotino_msgs/srv/_package.lisp)
Linked: (/home/robotino/robotino_ws/devel/.private/robotino_msgs/share/common-lisp/ros/robotino_msgs/srv/_package_SetEncoderPosition.lisp, /home/robotino/robotino_ws/devel/share/common-lisp/ros/robotino_msgs/srv/_package_SetEncoderPosition.lisp)
Linked: (/home/robotino/robotino_ws/devel/.private/robotino_msgs/share/common-lisp/ros/robotino_msgs/srv/robotino_msgs-srv.asd, /home/robotino/robotino_ws/devel/share/common-lisp/ros/robotino_msgs/srv/robotino_msgs-srv.asd)
Linked: (/home/robotino/robotino_ws/devel/.private/robotino_msgs/share/common-lisp/ros/robotino_msgs/srv/SetEncoderPosition.lisp, /home/robotino/robotino_ws/devel/share/common-lisp/ros/robotino_msgs/srv/SetEncoderPosition.lisp)
Linked: (/home/robotino/robotino_ws/devel/.private/robotino_msgs/share/gennodejs/ros/robotino_msgs/_index.js, /home/robotino/robotino_ws/devel/share/gennodejs/ros/robotino_msgs/_index.js)
Linked: (/home/robotino/robotino_ws/devel/.private/robotino_msgs/share/gennodejs/ros/robotino_msgs/msg/NorthStarReadings.js, /home/robotino/robotino_ws/devel/share/gennodejs/ros/robotino_msgs/msg/NorthStarReadings.js)
Linked: (/home/robotino/robotino_ws/devel/.private/robotino_msgs/share/gennodejs/ros/robotino_msgs/msg/AnalogReadings.js, /home/robotino/robotino_ws/devel/share/gennodejs/ros/robotino_msgs/msg/AnalogReadings.js)
Linked: (/home/robotino/robotino_ws/devel/.private/robotino_msgs/share/gennodejs/ros/robotino_msgs/msg/PowerReadings.js, /home/robotino/robotino_ws/devel/share/gennodejs/ros/robotino_msgs/msg/PowerReadings.js)
Linked: (/home/robotino/robotino_ws/devel/.private/robotino_msgs/share/gennodejs/ros/robotino_msgs/msg/BHAReadings.js, /home/robotino/robotino_ws/devel/share/gennodejs/ros/robotino_msgs/msg/BHAReadings.js)
Linked: (/home/robotino/robotino_ws/devel/.private/robotino_msgs/share/gennodejs/ros/robotino_msgs/msg/DigitalReadings.js, /home/robotino/robotino_ws/devel/share/gennodejs/ros/robotino_msgs/msg/DigitalReadings.js)
Linked: (/home/robotino/robotino_ws/devel/.private/robotino_msgs/share/gennodejs/ros/robotino_msgs/msg/SetBHAPressures.js, /home/robotino/robotino_ws/devel/share/gennodejs/ros/robotino_msgs/msg/SetBHAPressures.js)
Linked: (/home/robotino/robotino_ws/devel/.private/robotino_msgs/share/gennodejs/ros/robotino_msgs/msg/_index.js, /home/robotino/robotino_ws/devel/share/gennodejs/ros/robotino_msgs/msg/_index.js)
Linked: (/home/robotino/robotino_ws/devel/.private/robotino_msgs/share/gennodejs/ros/robotino_msgs/msg/MotorReadings.js, /home/robotino/robotino_ws/devel/share/gennodejs/ros/robotino_msgs/msg/MotorReadings.js)
Linked: (/home/robotino/robotino_ws/devel/.private/robotino_msgs/share/gennodejs/ros/robotino_msgs/msg/GrapplerReadings.js, /home/robotino/robotino_ws/devel/share/gennodejs/ros/robotino_msgs/msg/GrapplerReadings.js)
Linked: (/home/robotino/robotino_ws/devel/.private/robotino_msgs/share/gennodejs/ros/robotino_msgs/msg/GripperState.js, /home/robotino/robotino_ws/devel/share/gennodejs/ros/robotino_msgs/msg/GripperState.js)
Linked: (/home/robotino/robotino_ws/devel/.private/robotino_msgs/share/gennodejs/ros/robotino_msgs/msg/SetGrapplerAxes.js, /home/robotino/robotino_ws/devel/share/gennodejs/ros/robotino_msgs/msg/SetGrapplerAxes.js)
Linked: (/home/robotino/robotino_ws/devel/.private/robotino_msgs/share/gennodejs/ros/robotino_msgs/msg/EncoderReadings.js, /home/robotino/robotino_ws/devel/share/gennodejs/ros/robotino_msgs/msg/EncoderReadings.js)
Linked: (/home/robotino/robotino_ws/devel/.private/robotino_msgs/share/gennodejs/ros/robotino_msgs/msg/SetGrapplerAxis.js, /home/robotino/robotino_ws/devel/share/gennodejs/ros/robotino_msgs/msg/SetGrapplerAxis.js)
Linked: (/home/robotino/robotino_ws/devel/.private/robotino_msgs/share/gennodejs/ros/robotino_msgs/srv/SetEncoderPosition.js, /home/robotino/robotino_ws/devel/share/gennodejs/ros/robotino_msgs/srv/SetEncoderPosition.js)
Linked: (/home/robotino/robotino_ws/devel/.private/robotino_msgs/share/gennodejs/ros/robotino_msgs/srv/_index.js, /home/robotino/robotino_ws/devel/share/gennodejs/ros/robotino_msgs/srv/_index.js)
Linked: (/home/robotino/robotino_ws/devel/.private/robotino_msgs/share/gennodejs/ros/robotino_msgs/srv/SetGripperState.js, /home/robotino/robotino_ws/devel/share/gennodejs/ros/robotino_msgs/srv/SetGripperState.js)
Linked: (/home/robotino/robotino_ws/devel/.private/robotino_msgs/share/gennodejs/ros/robotino_msgs/srv/ResetOdometry.js, /home/robotino/robotino_ws/devel/share/gennodejs/ros/robotino_msgs/srv/ResetOdometry.js)
Linked: (/home/robotino/robotino_ws/devel/.private/robotino_msgs/include/robotino_msgs/DigitalReadings.h, /home/robotino/robotino_ws/devel/include/robotino_msgs/DigitalReadings.h)
Linked: (/home/robotino/robotino_ws/devel/.private/robotino_msgs/include/robotino_msgs/EncoderReadings.h, /home/robotino/robotino_ws/devel/include/robotino_msgs/EncoderReadings.h)
Linked: (/home/robotino/robotino_ws/devel/.private/robotino_msgs/include/robotino_msgs/ResetOdometryRequest.h, /home/robotino/robotino_ws/devel/include/robotino_msgs/ResetOdometryRequest.h)
Linked: (/home/robotino/robotino_ws/devel/.private/robotino_msgs/include/robotino_msgs/SetGrapplerAxis.h, /home/robotino/robotino_ws/devel/include/robotino_msgs/SetGrapplerAxis.h)
Linked: (/home/robotino/robotino_ws/devel/.private/robotino_msgs/include/robotino_msgs/SetGripperStateRequest.h, /home/robotino/robotino_ws/devel/include/robotino_msgs/SetGripperStateRequest.h)
Linked: (/home/robotino/robotino_ws/devel/.private/robotino_msgs/include/robotino_msgs/SetEncoderPosition.h, /home/robotino/robotino_ws/devel/include/robotino_msgs/SetEncoderPosition.h)
Linked: (/home/robotino/robotino_ws/devel/.private/robotino_msgs/include/robotino_msgs/SetEncoderPositionRequest.h, /home/robotino/robotino_ws/devel/include/robotino_msgs/SetEncoderPositionRequest.h)
Linked: (/home/robotino/robotino_ws/devel/.private/robotino_msgs/include/robotino_msgs/ResetOdometry.h, /home/robotino/robotino_ws/devel/include/robotino_msgs/ResetOdometry.h)
Linked: (/home/robotino/robotino_ws/devel/.private/robotino_msgs/include/robotino_msgs/ResetOdometryResponse.h, /home/robotino/robotino_ws/devel/include/robotino_msgs/ResetOdometryResponse.h)
Linked: (/home/robotino/robotino_ws/devel/.private/robotino_msgs/include/robotino_msgs/BHAReadings.h, /home/robotino/robotino_ws/devel/include/robotino_msgs/BHAReadings.h)
Linked: (/home/robotino/robotino_ws/devel/.private/robotino_msgs/include/robotino_msgs/GripperState.h, /home/robotino/robotino_ws/devel/include/robotino_msgs/GripperState.h)
Linked: (/home/robotino/robotino_ws/devel/.private/robotino_msgs/include/robotino_msgs/SetGripperStateResponse.h, /home/robotino/robotino_ws/devel/include/robotino_msgs/SetGripperStateResponse.h)
Linked: (/home/robotino/robotino_ws/devel/.private/robotino_msgs/include/robotino_msgs/MotorReadings.h, /home/robotino/robotino_ws/devel/include/robotino_msgs/MotorReadings.h)
Linked: (/home/robotino/robotino_ws/devel/.private/robotino_msgs/include/robotino_msgs/NorthStarReadings.h, /home/robotino/robotino_ws/devel/include/robotino_msgs/NorthStarReadings.h)
Linked: (/home/robotino/robotino_ws/devel/.private/robotino_msgs/include/robotino_msgs/AnalogReadings.h, /home/robotino/robotino_ws/devel/include/robotino_msgs/AnalogReadings.h)
Linked: (/home/robotino/robotino_ws/devel/.private/robotino_msgs/include/robotino_msgs/SetGrapplerAxes.h, /home/robotino/robotino_ws/devel/include/robotino_msgs/SetGrapplerAxes.h)
Linked: (/home/robotino/robotino_ws/devel/.private/robotino_msgs/include/robotino_msgs/SetEncoderPositionResponse.h, /home/robotino/robotino_ws/devel/include/robotino_msgs/SetEncoderPositionResponse.h)
Linked: (/home/robotino/robotino_ws/devel/.private/robotino_msgs/include/robotino_msgs/SetBHAPressures.h, /home/robotino/robotino_ws/devel/include/robotino_msgs/SetBHAPressures.h)
Linked: (/home/robotino/robotino_ws/devel/.private/robotino_msgs/include/robotino_msgs/PowerReadings.h, /home/robotino/robotino_ws/devel/include/robotino_msgs/PowerReadings.h)
Linked: (/home/robotino/robotino_ws/devel/.private/robotino_msgs/include/robotino_msgs/GrapplerReadings.h, /home/robotino/robotino_ws/devel/include/robotino_msgs/GrapplerReadings.h)
Linked: (/home/robotino/robotino_ws/devel/.private/robotino_msgs/include/robotino_msgs/SetGripperState.h, /home/robotino/robotino_ws/devel/include/robotino_msgs/SetGripperState.h)
