[01m[K/home/robotino/robotino_ws/src/catkin-pkg/robotino_local_planner/src/RobotinoLocalPlanner.cpp:[m[K In member function ‘[01m[Kbool robotino_local_planner::RobotinoLocalPlanner::rotateToStart(geometry_msgs::Twist&)[m[K’:
[01m[K/home/robotino/robotino_ws/src/catkin-pkg/robotino_local_planner/src/RobotinoLocalPlanner.cpp:165:9:[m[K [01;31m[Kerror: [m[K‘[01m[Kclass tf2_ros::Buffer[m[K’ has no member named ‘[01m[KwaitForTransform[m[K’
    tf_->waitForTransform( base_odom_.header.frame_id, global_plan_[next_heading_index_].header.frame_id, now, ros::Duration( TRANSFORM_TIMEOUT ) );
[01;32m[K         ^[m[K
[01m[K/home/robotino/robotino_ws/src/catkin-pkg/robotino_local_planner/src/RobotinoLocalPlanner.cpp:166:9:[m[K [01;31m[Kerror: [m[K‘[01m[Kclass tf2_ros::Buffer[m[K’ has no member named ‘[01m[KtransformPose[m[K’
    tf_->transformPose( base_odom_.header.frame_id, global_plan_[next_heading_index_], rotate_goal );
[01;32m[K         ^[m[K
[01m[K/home/robotino/robotino_ws/src/catkin-pkg/robotino_local_planner/src/RobotinoLocalPlanner.cpp:[m[K In member function ‘[01m[Kbool robotino_local_planner::RobotinoLocalPlanner::move(geometry_msgs::Twist&)[m[K’:
[01m[K/home/robotino/robotino_ws/src/catkin-pkg/robotino_local_planner/src/RobotinoLocalPlanner.cpp:215:9:[m[K [01;31m[Kerror: [m[K‘[01m[Kclass tf2_ros::Buffer[m[K’ has no member named ‘[01m[KwaitForTransform[m[K’
    tf_->waitForTransform( base_odom_.header.frame_id, global_plan_[next_heading_index_].header.frame_id, now, ros::Duration( TRANSFORM_TIMEOUT ) );
[01;32m[K         ^[m[K
[01m[K/home/robotino/robotino_ws/src/catkin-pkg/robotino_local_planner/src/RobotinoLocalPlanner.cpp:216:9:[m[K [01;31m[Kerror: [m[K‘[01m[Kclass tf2_ros::Buffer[m[K’ has no member named ‘[01m[KtransformPose[m[K’
    tf_->transformPose( base_odom_.header.frame_id, global_plan_[next_heading_index_], move_goal );
[01;32m[K         ^[m[K
[01m[K/home/robotino/robotino_ws/src/catkin-pkg/robotino_local_planner/src/RobotinoLocalPlanner.cpp:[m[K In member function ‘[01m[Kbool robotino_local_planner::RobotinoLocalPlanner::rotateToGoal(geometry_msgs::Twist&)[m[K’:
[01m[K/home/robotino/robotino_ws/src/catkin-pkg/robotino_local_planner/src/RobotinoLocalPlanner.cpp:281:9:[m[K [01;31m[Kerror: [m[K‘[01m[Kclass tf2_ros::Buffer[m[K’ has no member named ‘[01m[KwaitForTransform[m[K’
    tf_->waitForTransform( base_odom_.header.frame_id, global_plan_[next_heading_index_].header.frame_id, now, ros::Duration( TRANSFORM_TIMEOUT ) );
[01;32m[K         ^[m[K
[01m[K/home/robotino/robotino_ws/src/catkin-pkg/robotino_local_planner/src/RobotinoLocalPlanner.cpp:282:9:[m[K [01;31m[Kerror: [m[K‘[01m[Kclass tf2_ros::Buffer[m[K’ has no member named ‘[01m[KtransformPose[m[K’
    tf_->transformPose( base_odom_.header.frame_id, global_plan_[next_heading_index_], rotate_goal );
[01;32m[K         ^[m[K
[01m[K/home/robotino/robotino_ws/src/catkin-pkg/robotino_local_planner/src/RobotinoLocalPlanner.cpp:[m[K In member function ‘[01m[Kvoid robotino_local_planner::RobotinoLocalPlanner::computeNextHeadingIndex()[m[K’:
[01m[K/home/robotino/robotino_ws/src/catkin-pkg/robotino_local_planner/src/RobotinoLocalPlanner.cpp:327:10:[m[K [01;31m[Kerror: [m[K‘[01m[Kclass tf2_ros::Buffer[m[K’ has no member named ‘[01m[KwaitForTransform[m[K’
     tf_->waitForTransform( base_odom_.header.frame_id, global_plan_[i].header.frame_id, now, ros::Duration( TRANSFORM_TIMEOUT ) );
[01;32m[K          ^[m[K
[01m[K/home/robotino/robotino_ws/src/catkin-pkg/robotino_local_planner/src/RobotinoLocalPlanner.cpp:328:10:[m[K [01;31m[Kerror: [m[K‘[01m[Kclass tf2_ros::Buffer[m[K’ has no member named ‘[01m[KtransformPose[m[K’
     tf_->transformPose( base_odom_.header.frame_id, global_plan_[i], next_heading_pose );
[01;32m[K          ^[m[K
In file included from [01m[K/opt/ros/kinetic/include/class_loader/class_loader_core.hpp:46:0[m[K,
                 from [01m[K/opt/ros/kinetic/include/class_loader/class_loader.hpp:43[m[K,
                 from [01m[K/opt/ros/kinetic/include/class_loader/./multi_library_class_loader.hpp:42[m[K,
                 from [01m[K/opt/ros/kinetic/include/class_loader/multi_library_class_loader.h:35[m[K,
                 from [01m[K/opt/ros/kinetic/include/pluginlib/class_loader.hpp:38[m[K,
                 from [01m[K/home/robotino/robotino_ws/src/navigation/costmap_2d/include/costmap_2d/costmap_2d_ros.h:50[m[K,
                 from [01m[K/home/robotino/robotino_ws/src/navigation/nav_core/include/nav_core/base_local_planner.h:42[m[K,
                 from [01m[K/home/robotino/robotino_ws/src/catkin-pkg/robotino_local_planner/include/robotino_local_planner/RobotinoLocalPlanner.h:11[m[K,
                 from [01m[K/home/robotino/robotino_ws/src/catkin-pkg/robotino_local_planner/src/RobotinoLocalPlanner.cpp:8[m[K:
/opt/ros/kinetic/include/class_loader/meta_object.hpp: In instantiation of ‘[01m[KB* class_loader::class_loader_private::MetaObject<C, B>::create() const [with C = robotino_local_planner::RobotinoLocalPlanner; B = nav_core::BaseLocalPlanner][m[K’:
[01m[K/home/robotino/robotino_ws/src/catkin-pkg/robotino_local_planner/src/RobotinoLocalPlanner.cpp:442:1:[m[K   required from here
[01m[K/opt/ros/kinetic/include/class_loader/meta_object.hpp:198:16:[m[K [01;31m[Kerror: [m[Kinvalid new-expression of abstract class type ‘[01m[Krobotino_local_planner::RobotinoLocalPlanner[m[K’
     return new C;
[01;32m[K                ^[m[K
In file included from [01m[K/home/robotino/robotino_ws/src/catkin-pkg/robotino_local_planner/src/RobotinoLocalPlanner.cpp:8:0[m[K:
[01m[K/home/robotino/robotino_ws/src/catkin-pkg/robotino_local_planner/include/robotino_local_planner/RobotinoLocalPlanner.h:23:8:[m[K [01;36m[Knote: [m[K  because the following virtual functions are pure within ‘[01m[Krobotino_local_planner::RobotinoLocalPlanner[m[K’:
  class RobotinoLocalPlanner: public nav_core::BaseLocalPlanner
[01;32m[K        ^[m[K
[01m[K/home/robotino/robotino_ws/src/catkin-pkg/robotino_local_planner/src/RobotinoLocalPlanner.cpp:37:7:[m[K [01;36m[Knote: [m[K	virtual void robotino_local_planner::RobotinoLocalPlanner::initialize(std::__cxx11::string, tf2_ros::Buffer*, costmap_2d::Costmap2DROS*)
  void RobotinoLocalPlanner::initialize( std::string name, tf2_ros::Buffer* tf, costmap_2d::Costmap2DROS* costmap_ros )
[01;32m[K       ^[m[K
make[2]: *** [CMakeFiles/RobotinoLocalPlanner.dir/src/RobotinoLocalPlanner.cpp.o] Error 1
make[1]: *** [CMakeFiles/RobotinoLocalPlanner.dir/all] Error 2
make: *** [all] Error 2
