In file included from [01m[K/home/robotino/robotino_ws/src/catkin-pkg/robotino_node/src/AnalogInputArrayROS.cpp:8:0[m[K:
[01m[K/home/robotino/robotino_ws/src/catkin-pkg/robotino_node/include/AnalogInputArrayROS.h:11:48:[m[K [01;31m[Kfatal error: [m[Krec/robotino/api2/AnalogInputArray.h: No such file or directory
compilation terminated.
make[2]: *** [CMakeFiles/robotino_node.dir/src/AnalogInputArrayROS.cpp.o] Error 1
make[2]: *** Waiting for unfinished jobs....
In file included from [01m[K/home/robotino/robotino_ws/src/catkin-pkg/robotino_node/include/RobotinoNode.h:11:0[m[K,
                 from [01m[K/home/robotino/robotino_ws/src/catkin-pkg/robotino_node/src/robotino_node.cpp:11[m[K:
[01m[K/home/robotino/robotino_ws/src/catkin-pkg/robotino_node/include/AnalogInputArrayROS.h:11:48:[m[K [01;31m[Kfatal error: [m[Krec/robotino/api2/AnalogInputArray.h: No such file or directory
compilation terminated.
make[2]: *** [CMakeFiles/robotino_node.dir/src/robotino_node.cpp.o] Error 1
make[1]: *** [CMakeFiles/robotino_node.dir/all] Error 2
make[1]: *** Waiting for unfinished jobs....
make: *** [all] Error 2
