Linked: (/home/robotino/robotino_ws/devel/.private/camera_calibration_parsers/lib/libcamera_calibration_parsers.so, /home/robotino/robotino_ws/devel/lib/libcamera_calibration_parsers.so)
Linked: (/home/robotino/robotino_ws/devel/.private/camera_calibration_parsers/lib/python2.7/dist-packages/camera_calibration_parsers/__init__.py, /home/robotino/robotino_ws/devel/lib/python2.7/dist-packages/camera_calibration_parsers/__init__.py)
Linked: (/home/robotino/robotino_ws/devel/.private/camera_calibration_parsers/lib/python2.7/dist-packages/camera_calibration_parsers/camera_calibration_parsers_wrapper.so, /home/robotino/robotino_ws/devel/lib/python2.7/dist-packages/camera_calibration_parsers/camera_calibration_parsers_wrapper.so)
Linked: (/home/robotino/robotino_ws/devel/.private/camera_calibration_parsers/lib/pkgconfig/camera_calibration_parsers.pc, /home/robotino/robotino_ws/devel/lib/pkgconfig/camera_calibration_parsers.pc)
Linked: (/home/robotino/robotino_ws/devel/.private/camera_calibration_parsers/lib/camera_calibration_parsers/convert, /home/robotino/robotino_ws/devel/lib/camera_calibration_parsers/convert)
Linked: (/home/robotino/robotino_ws/devel/.private/camera_calibration_parsers/share/camera_calibration_parsers/cmake/camera_calibration_parsersConfig-version.cmake, /home/robotino/robotino_ws/devel/share/camera_calibration_parsers/cmake/camera_calibration_parsersConfig-version.cmake)
Linked: (/home/robotino/robotino_ws/devel/.private/camera_calibration_parsers/share/camera_calibration_parsers/cmake/camera_calibration_parsersConfig.cmake, /home/robotino/robotino_ws/devel/share/camera_calibration_parsers/cmake/camera_calibration_parsersConfig.cmake)
Linked: (/home/robotino/robotino_ws/devel/.private/camera_calibration_parsers/share/camera_calibration_parsers/test/calib8.ini, /home/robotino/robotino_ws/devel/share/camera_calibration_parsers/test/calib8.ini)
Linked: (/home/robotino/robotino_ws/devel/.private/camera_calibration_parsers/share/camera_calibration_parsers/test/calib5.ini, /home/robotino/robotino_ws/devel/share/camera_calibration_parsers/test/calib5.ini)
