Linked: (/home/robotino/robotino_ws/devel/.private/rviz_visual_tools/lib/librviz_visual_tools_imarker_simple.so, /home/robotino/robotino_ws/devel/lib/librviz_visual_tools_imarker_simple.so)
Linked: (/home/robotino/robotino_ws/devel/.private/rviz_visual_tools/lib/librviz_visual_tools_remote_control.so, /home/robotino/robotino_ws/devel/lib/librviz_visual_tools_remote_control.so)
Linked: (/home/robotino/robotino_ws/devel/.private/rviz_visual_tools/lib/librviz_visual_tools_gui.so, /home/robotino/robotino_ws/devel/lib/librviz_visual_tools_gui.so)
Linked: (/home/robotino/robotino_ws/devel/.private/rviz_visual_tools/lib/librviz_visual_tools.so, /home/robotino/robotino_ws/devel/lib/librviz_visual_tools.so)
Linked: (/home/robotino/robotino_ws/devel/.private/rviz_visual_tools/lib/pkgconfig/rviz_visual_tools.pc, /home/robotino/robotino_ws/devel/lib/pkgconfig/rviz_visual_tools.pc)
Linked: (/home/robotino/robotino_ws/devel/.private/rviz_visual_tools/lib/rviz_visual_tools/demo, /home/robotino/robotino_ws/devel/lib/rviz_visual_tools/demo)
Linked: (/home/robotino/robotino_ws/devel/.private/rviz_visual_tools/lib/rviz_visual_tools/imarker_simple_demo, /home/robotino/robotino_ws/devel/lib/rviz_visual_tools/imarker_simple_demo)
Linked: (/home/robotino/robotino_ws/devel/.private/rviz_visual_tools/share/rviz_visual_tools/cmake/rviz_visual_toolsConfig-version.cmake, /home/robotino/robotino_ws/devel/share/rviz_visual_tools/cmake/rviz_visual_toolsConfig-version.cmake)
Linked: (/home/robotino/robotino_ws/devel/.private/rviz_visual_tools/share/rviz_visual_tools/cmake/rviz_visual_toolsConfig.cmake, /home/robotino/robotino_ws/devel/share/rviz_visual_tools/cmake/rviz_visual_toolsConfig.cmake)
