[35m[1mScanning dependencies of target robotino_safety_node[0m
[ 33%] [32mBuilding CXX object CMakeFiles/robotino_safety_node.dir/src/RobotinoSafety.cpp.o[0m
[ 66%] [32mBuilding CXX object CMakeFiles/robotino_safety_node.dir/src/robotino_safety_node.cpp.o[0m
[100%] [32m[1mLinking CXX executable /home/robotino/robotino_ws/devel/.private/robotino_safety/lib/robotino_safety/robotino_safety_node[0m
[100%] Built target robotino_safety_node
