Linked: (/home/robotino/robotino_ws/devel/.private/tf2_msgs/lib/python2.7/dist-packages/tf2_msgs/__init__.py, /home/robotino/robotino_ws/devel/lib/python2.7/dist-packages/tf2_msgs/__init__.py)
Linked: (/home/robotino/robotino_ws/devel/.private/tf2_msgs/lib/python2.7/dist-packages/tf2_msgs/msg/_LookupTransformActionResult.py, /home/robotino/robotino_ws/devel/lib/python2.7/dist-packages/tf2_msgs/msg/_LookupTransformActionResult.py)
Linked: (/home/robotino/robotino_ws/devel/.private/tf2_msgs/lib/python2.7/dist-packages/tf2_msgs/msg/__init__.py, /home/robotino/robotino_ws/devel/lib/python2.7/dist-packages/tf2_msgs/msg/__init__.py)
Linked: (/home/robotino/robotino_ws/devel/.private/tf2_msgs/lib/python2.7/dist-packages/tf2_msgs/msg/_LookupTransformFeedback.py, /home/robotino/robotino_ws/devel/lib/python2.7/dist-packages/tf2_msgs/msg/_LookupTransformFeedback.py)
Linked: (/home/robotino/robotino_ws/devel/.private/tf2_msgs/lib/python2.7/dist-packages/tf2_msgs/msg/_LookupTransformActionFeedback.py, /home/robotino/robotino_ws/devel/lib/python2.7/dist-packages/tf2_msgs/msg/_LookupTransformActionFeedback.py)
Linked: (/home/robotino/robotino_ws/devel/.private/tf2_msgs/lib/python2.7/dist-packages/tf2_msgs/msg/_LookupTransformActionGoal.py, /home/robotino/robotino_ws/devel/lib/python2.7/dist-packages/tf2_msgs/msg/_LookupTransformActionGoal.py)
Linked: (/home/robotino/robotino_ws/devel/.private/tf2_msgs/lib/python2.7/dist-packages/tf2_msgs/msg/_LookupTransformResult.py, /home/robotino/robotino_ws/devel/lib/python2.7/dist-packages/tf2_msgs/msg/_LookupTransformResult.py)
Linked: (/home/robotino/robotino_ws/devel/.private/tf2_msgs/lib/python2.7/dist-packages/tf2_msgs/msg/_LookupTransformGoal.py, /home/robotino/robotino_ws/devel/lib/python2.7/dist-packages/tf2_msgs/msg/_LookupTransformGoal.py)
Linked: (/home/robotino/robotino_ws/devel/.private/tf2_msgs/lib/python2.7/dist-packages/tf2_msgs/msg/_TF2Error.py, /home/robotino/robotino_ws/devel/lib/python2.7/dist-packages/tf2_msgs/msg/_TF2Error.py)
Linked: (/home/robotino/robotino_ws/devel/.private/tf2_msgs/lib/python2.7/dist-packages/tf2_msgs/msg/_TFMessage.py, /home/robotino/robotino_ws/devel/lib/python2.7/dist-packages/tf2_msgs/msg/_TFMessage.py)
Linked: (/home/robotino/robotino_ws/devel/.private/tf2_msgs/lib/python2.7/dist-packages/tf2_msgs/msg/_LookupTransformAction.py, /home/robotino/robotino_ws/devel/lib/python2.7/dist-packages/tf2_msgs/msg/_LookupTransformAction.py)
Linked: (/home/robotino/robotino_ws/devel/.private/tf2_msgs/lib/python2.7/dist-packages/tf2_msgs/srv/__init__.py, /home/robotino/robotino_ws/devel/lib/python2.7/dist-packages/tf2_msgs/srv/__init__.py)
Linked: (/home/robotino/robotino_ws/devel/.private/tf2_msgs/lib/python2.7/dist-packages/tf2_msgs/srv/_FrameGraph.py, /home/robotino/robotino_ws/devel/lib/python2.7/dist-packages/tf2_msgs/srv/_FrameGraph.py)
Linked: (/home/robotino/robotino_ws/devel/.private/tf2_msgs/lib/pkgconfig/tf2_msgs.pc, /home/robotino/robotino_ws/devel/lib/pkgconfig/tf2_msgs.pc)
Linked: (/home/robotino/robotino_ws/devel/.private/tf2_msgs/share/tf2_msgs/cmake/tf2_msgsConfig.cmake, /home/robotino/robotino_ws/devel/share/tf2_msgs/cmake/tf2_msgsConfig.cmake)
Linked: (/home/robotino/robotino_ws/devel/.private/tf2_msgs/share/tf2_msgs/cmake/tf2_msgs-msg-paths.cmake, /home/robotino/robotino_ws/devel/share/tf2_msgs/cmake/tf2_msgs-msg-paths.cmake)
Linked: (/home/robotino/robotino_ws/devel/.private/tf2_msgs/share/tf2_msgs/cmake/tf2_msgs-msg-extras.cmake, /home/robotino/robotino_ws/devel/share/tf2_msgs/cmake/tf2_msgs-msg-extras.cmake)
Linked: (/home/robotino/robotino_ws/devel/.private/tf2_msgs/share/tf2_msgs/cmake/tf2_msgsConfig-version.cmake, /home/robotino/robotino_ws/devel/share/tf2_msgs/cmake/tf2_msgsConfig-version.cmake)
Linked: (/home/robotino/robotino_ws/devel/.private/tf2_msgs/share/tf2_msgs/msg/LookupTransformActionResult.msg, /home/robotino/robotino_ws/devel/share/tf2_msgs/msg/LookupTransformActionResult.msg)
Linked: (/home/robotino/robotino_ws/devel/.private/tf2_msgs/share/tf2_msgs/msg/LookupTransformGoal.msg, /home/robotino/robotino_ws/devel/share/tf2_msgs/msg/LookupTransformGoal.msg)
Linked: (/home/robotino/robotino_ws/devel/.private/tf2_msgs/share/tf2_msgs/msg/LookupTransformActionFeedback.msg, /home/robotino/robotino_ws/devel/share/tf2_msgs/msg/LookupTransformActionFeedback.msg)
Linked: (/home/robotino/robotino_ws/devel/.private/tf2_msgs/share/tf2_msgs/msg/LookupTransformFeedback.msg, /home/robotino/robotino_ws/devel/share/tf2_msgs/msg/LookupTransformFeedback.msg)
Linked: (/home/robotino/robotino_ws/devel/.private/tf2_msgs/share/tf2_msgs/msg/LookupTransformAction.msg, /home/robotino/robotino_ws/devel/share/tf2_msgs/msg/LookupTransformAction.msg)
Linked: (/home/robotino/robotino_ws/devel/.private/tf2_msgs/share/tf2_msgs/msg/LookupTransformActionGoal.msg, /home/robotino/robotino_ws/devel/share/tf2_msgs/msg/LookupTransformActionGoal.msg)
Linked: (/home/robotino/robotino_ws/devel/.private/tf2_msgs/share/tf2_msgs/msg/LookupTransformResult.msg, /home/robotino/robotino_ws/devel/share/tf2_msgs/msg/LookupTransformResult.msg)
Linked: (/home/robotino/robotino_ws/devel/.private/tf2_msgs/share/roseus/ros/tf2_msgs/manifest.l, /home/robotino/robotino_ws/devel/share/roseus/ros/tf2_msgs/manifest.l)
Linked: (/home/robotino/robotino_ws/devel/.private/tf2_msgs/share/roseus/ros/tf2_msgs/msg/LookupTransformActionGoal.l, /home/robotino/robotino_ws/devel/share/roseus/ros/tf2_msgs/msg/LookupTransformActionGoal.l)
Linked: (/home/robotino/robotino_ws/devel/.private/tf2_msgs/share/roseus/ros/tf2_msgs/msg/LookupTransformAction.l, /home/robotino/robotino_ws/devel/share/roseus/ros/tf2_msgs/msg/LookupTransformAction.l)
Linked: (/home/robotino/robotino_ws/devel/.private/tf2_msgs/share/roseus/ros/tf2_msgs/msg/LookupTransformResult.l, /home/robotino/robotino_ws/devel/share/roseus/ros/tf2_msgs/msg/LookupTransformResult.l)
Linked: (/home/robotino/robotino_ws/devel/.private/tf2_msgs/share/roseus/ros/tf2_msgs/msg/TFMessage.l, /home/robotino/robotino_ws/devel/share/roseus/ros/tf2_msgs/msg/TFMessage.l)
Linked: (/home/robotino/robotino_ws/devel/.private/tf2_msgs/share/roseus/ros/tf2_msgs/msg/LookupTransformActionFeedback.l, /home/robotino/robotino_ws/devel/share/roseus/ros/tf2_msgs/msg/LookupTransformActionFeedback.l)
Linked: (/home/robotino/robotino_ws/devel/.private/tf2_msgs/share/roseus/ros/tf2_msgs/msg/TF2Error.l, /home/robotino/robotino_ws/devel/share/roseus/ros/tf2_msgs/msg/TF2Error.l)
Linked: (/home/robotino/robotino_ws/devel/.private/tf2_msgs/share/roseus/ros/tf2_msgs/msg/LookupTransformGoal.l, /home/robotino/robotino_ws/devel/share/roseus/ros/tf2_msgs/msg/LookupTransformGoal.l)
Linked: (/home/robotino/robotino_ws/devel/.private/tf2_msgs/share/roseus/ros/tf2_msgs/msg/LookupTransformActionResult.l, /home/robotino/robotino_ws/devel/share/roseus/ros/tf2_msgs/msg/LookupTransformActionResult.l)
Linked: (/home/robotino/robotino_ws/devel/.private/tf2_msgs/share/roseus/ros/tf2_msgs/msg/LookupTransformFeedback.l, /home/robotino/robotino_ws/devel/share/roseus/ros/tf2_msgs/msg/LookupTransformFeedback.l)
Linked: (/home/robotino/robotino_ws/devel/.private/tf2_msgs/share/roseus/ros/tf2_msgs/srv/FrameGraph.l, /home/robotino/robotino_ws/devel/share/roseus/ros/tf2_msgs/srv/FrameGraph.l)
Linked: (/home/robotino/robotino_ws/devel/.private/tf2_msgs/share/common-lisp/ros/tf2_msgs/msg/_package_LookupTransformActionFeedback.lisp, /home/robotino/robotino_ws/devel/share/common-lisp/ros/tf2_msgs/msg/_package_LookupTransformActionFeedback.lisp)
Linked: (/home/robotino/robotino_ws/devel/.private/tf2_msgs/share/common-lisp/ros/tf2_msgs/msg/LookupTransformAction.lisp, /home/robotino/robotino_ws/devel/share/common-lisp/ros/tf2_msgs/msg/LookupTransformAction.lisp)
Linked: (/home/robotino/robotino_ws/devel/.private/tf2_msgs/share/common-lisp/ros/tf2_msgs/msg/LookupTransformActionGoal.lisp, /home/robotino/robotino_ws/devel/share/common-lisp/ros/tf2_msgs/msg/LookupTransformActionGoal.lisp)
Linked: (/home/robotino/robotino_ws/devel/.private/tf2_msgs/share/common-lisp/ros/tf2_msgs/msg/LookupTransformGoal.lisp, /home/robotino/robotino_ws/devel/share/common-lisp/ros/tf2_msgs/msg/LookupTransformGoal.lisp)
Linked: (/home/robotino/robotino_ws/devel/.private/tf2_msgs/share/common-lisp/ros/tf2_msgs/msg/_package_TF2Error.lisp, /home/robotino/robotino_ws/devel/share/common-lisp/ros/tf2_msgs/msg/_package_TF2Error.lisp)
Linked: (/home/robotino/robotino_ws/devel/.private/tf2_msgs/share/common-lisp/ros/tf2_msgs/msg/LookupTransformActionFeedback.lisp, /home/robotino/robotino_ws/devel/share/common-lisp/ros/tf2_msgs/msg/LookupTransformActionFeedback.lisp)
Linked: (/home/robotino/robotino_ws/devel/.private/tf2_msgs/share/common-lisp/ros/tf2_msgs/msg/TFMessage.lisp, /home/robotino/robotino_ws/devel/share/common-lisp/ros/tf2_msgs/msg/TFMessage.lisp)
Linked: (/home/robotino/robotino_ws/devel/.private/tf2_msgs/share/common-lisp/ros/tf2_msgs/msg/_package_LookupTransformActionGoal.lisp, /home/robotino/robotino_ws/devel/share/common-lisp/ros/tf2_msgs/msg/_package_LookupTransformActionGoal.lisp)
Linked: (/home/robotino/robotino_ws/devel/.private/tf2_msgs/share/common-lisp/ros/tf2_msgs/msg/_package_LookupTransformFeedback.lisp, /home/robotino/robotino_ws/devel/share/common-lisp/ros/tf2_msgs/msg/_package_LookupTransformFeedback.lisp)
Linked: (/home/robotino/robotino_ws/devel/.private/tf2_msgs/share/common-lisp/ros/tf2_msgs/msg/_package_LookupTransformGoal.lisp, /home/robotino/robotino_ws/devel/share/common-lisp/ros/tf2_msgs/msg/_package_LookupTransformGoal.lisp)
Linked: (/home/robotino/robotino_ws/devel/.private/tf2_msgs/share/common-lisp/ros/tf2_msgs/msg/tf2_msgs-msg.asd, /home/robotino/robotino_ws/devel/share/common-lisp/ros/tf2_msgs/msg/tf2_msgs-msg.asd)
Linked: (/home/robotino/robotino_ws/devel/.private/tf2_msgs/share/common-lisp/ros/tf2_msgs/msg/_package.lisp, /home/robotino/robotino_ws/devel/share/common-lisp/ros/tf2_msgs/msg/_package.lisp)
Linked: (/home/robotino/robotino_ws/devel/.private/tf2_msgs/share/common-lisp/ros/tf2_msgs/msg/TF2Error.lisp, /home/robotino/robotino_ws/devel/share/common-lisp/ros/tf2_msgs/msg/TF2Error.lisp)
Linked: (/home/robotino/robotino_ws/devel/.private/tf2_msgs/share/common-lisp/ros/tf2_msgs/msg/_package_LookupTransformAction.lisp, /home/robotino/robotino_ws/devel/share/common-lisp/ros/tf2_msgs/msg/_package_LookupTransformAction.lisp)
Linked: (/home/robotino/robotino_ws/devel/.private/tf2_msgs/share/common-lisp/ros/tf2_msgs/msg/LookupTransformFeedback.lisp, /home/robotino/robotino_ws/devel/share/common-lisp/ros/tf2_msgs/msg/LookupTransformFeedback.lisp)
Linked: (/home/robotino/robotino_ws/devel/.private/tf2_msgs/share/common-lisp/ros/tf2_msgs/msg/LookupTransformResult.lisp, /home/robotino/robotino_ws/devel/share/common-lisp/ros/tf2_msgs/msg/LookupTransformResult.lisp)
Linked: (/home/robotino/robotino_ws/devel/.private/tf2_msgs/share/common-lisp/ros/tf2_msgs/msg/_package_LookupTransformResult.lisp, /home/robotino/robotino_ws/devel/share/common-lisp/ros/tf2_msgs/msg/_package_LookupTransformResult.lisp)
Linked: (/home/robotino/robotino_ws/devel/.private/tf2_msgs/share/common-lisp/ros/tf2_msgs/msg/_package_TFMessage.lisp, /home/robotino/robotino_ws/devel/share/common-lisp/ros/tf2_msgs/msg/_package_TFMessage.lisp)
Linked: (/home/robotino/robotino_ws/devel/.private/tf2_msgs/share/common-lisp/ros/tf2_msgs/msg/_package_LookupTransformActionResult.lisp, /home/robotino/robotino_ws/devel/share/common-lisp/ros/tf2_msgs/msg/_package_LookupTransformActionResult.lisp)
Linked: (/home/robotino/robotino_ws/devel/.private/tf2_msgs/share/common-lisp/ros/tf2_msgs/msg/LookupTransformActionResult.lisp, /home/robotino/robotino_ws/devel/share/common-lisp/ros/tf2_msgs/msg/LookupTransformActionResult.lisp)
Linked: (/home/robotino/robotino_ws/devel/.private/tf2_msgs/share/common-lisp/ros/tf2_msgs/srv/FrameGraph.lisp, /home/robotino/robotino_ws/devel/share/common-lisp/ros/tf2_msgs/srv/FrameGraph.lisp)
Linked: (/home/robotino/robotino_ws/devel/.private/tf2_msgs/share/common-lisp/ros/tf2_msgs/srv/_package.lisp, /home/robotino/robotino_ws/devel/share/common-lisp/ros/tf2_msgs/srv/_package.lisp)
Linked: (/home/robotino/robotino_ws/devel/.private/tf2_msgs/share/common-lisp/ros/tf2_msgs/srv/_package_FrameGraph.lisp, /home/robotino/robotino_ws/devel/share/common-lisp/ros/tf2_msgs/srv/_package_FrameGraph.lisp)
Linked: (/home/robotino/robotino_ws/devel/.private/tf2_msgs/share/common-lisp/ros/tf2_msgs/srv/tf2_msgs-srv.asd, /home/robotino/robotino_ws/devel/share/common-lisp/ros/tf2_msgs/srv/tf2_msgs-srv.asd)
Linked: (/home/robotino/robotino_ws/devel/.private/tf2_msgs/share/gennodejs/ros/tf2_msgs/_index.js, /home/robotino/robotino_ws/devel/share/gennodejs/ros/tf2_msgs/_index.js)
Linked: (/home/robotino/robotino_ws/devel/.private/tf2_msgs/share/gennodejs/ros/tf2_msgs/msg/LookupTransformAction.js, /home/robotino/robotino_ws/devel/share/gennodejs/ros/tf2_msgs/msg/LookupTransformAction.js)
Linked: (/home/robotino/robotino_ws/devel/.private/tf2_msgs/share/gennodejs/ros/tf2_msgs/msg/LookupTransformActionGoal.js, /home/robotino/robotino_ws/devel/share/gennodejs/ros/tf2_msgs/msg/LookupTransformActionGoal.js)
Linked: (/home/robotino/robotino_ws/devel/.private/tf2_msgs/share/gennodejs/ros/tf2_msgs/msg/LookupTransformFeedback.js, /home/robotino/robotino_ws/devel/share/gennodejs/ros/tf2_msgs/msg/LookupTransformFeedback.js)
Linked: (/home/robotino/robotino_ws/devel/.private/tf2_msgs/share/gennodejs/ros/tf2_msgs/msg/TF2Error.js, /home/robotino/robotino_ws/devel/share/gennodejs/ros/tf2_msgs/msg/TF2Error.js)
Linked: (/home/robotino/robotino_ws/devel/.private/tf2_msgs/share/gennodejs/ros/tf2_msgs/msg/_index.js, /home/robotino/robotino_ws/devel/share/gennodejs/ros/tf2_msgs/msg/_index.js)
Linked: (/home/robotino/robotino_ws/devel/.private/tf2_msgs/share/gennodejs/ros/tf2_msgs/msg/LookupTransformActionFeedback.js, /home/robotino/robotino_ws/devel/share/gennodejs/ros/tf2_msgs/msg/LookupTransformActionFeedback.js)
Linked: (/home/robotino/robotino_ws/devel/.private/tf2_msgs/share/gennodejs/ros/tf2_msgs/msg/TFMessage.js, /home/robotino/robotino_ws/devel/share/gennodejs/ros/tf2_msgs/msg/TFMessage.js)
Linked: (/home/robotino/robotino_ws/devel/.private/tf2_msgs/share/gennodejs/ros/tf2_msgs/msg/LookupTransformGoal.js, /home/robotino/robotino_ws/devel/share/gennodejs/ros/tf2_msgs/msg/LookupTransformGoal.js)
Linked: (/home/robotino/robotino_ws/devel/.private/tf2_msgs/share/gennodejs/ros/tf2_msgs/msg/LookupTransformResult.js, /home/robotino/robotino_ws/devel/share/gennodejs/ros/tf2_msgs/msg/LookupTransformResult.js)
Linked: (/home/robotino/robotino_ws/devel/.private/tf2_msgs/share/gennodejs/ros/tf2_msgs/msg/LookupTransformActionResult.js, /home/robotino/robotino_ws/devel/share/gennodejs/ros/tf2_msgs/msg/LookupTransformActionResult.js)
Linked: (/home/robotino/robotino_ws/devel/.private/tf2_msgs/share/gennodejs/ros/tf2_msgs/srv/FrameGraph.js, /home/robotino/robotino_ws/devel/share/gennodejs/ros/tf2_msgs/srv/FrameGraph.js)
Linked: (/home/robotino/robotino_ws/devel/.private/tf2_msgs/share/gennodejs/ros/tf2_msgs/srv/_index.js, /home/robotino/robotino_ws/devel/share/gennodejs/ros/tf2_msgs/srv/_index.js)
Linked: (/home/robotino/robotino_ws/devel/.private/tf2_msgs/include/tf2_msgs/FrameGraphResponse.h, /home/robotino/robotino_ws/devel/include/tf2_msgs/FrameGraphResponse.h)
Linked: (/home/robotino/robotino_ws/devel/.private/tf2_msgs/include/tf2_msgs/LookupTransformGoal.h, /home/robotino/robotino_ws/devel/include/tf2_msgs/LookupTransformGoal.h)
Linked: (/home/robotino/robotino_ws/devel/.private/tf2_msgs/include/tf2_msgs/FrameGraphRequest.h, /home/robotino/robotino_ws/devel/include/tf2_msgs/FrameGraphRequest.h)
Linked: (/home/robotino/robotino_ws/devel/.private/tf2_msgs/include/tf2_msgs/LookupTransformActionGoal.h, /home/robotino/robotino_ws/devel/include/tf2_msgs/LookupTransformActionGoal.h)
Linked: (/home/robotino/robotino_ws/devel/.private/tf2_msgs/include/tf2_msgs/TF2Error.h, /home/robotino/robotino_ws/devel/include/tf2_msgs/TF2Error.h)
Linked: (/home/robotino/robotino_ws/devel/.private/tf2_msgs/include/tf2_msgs/LookupTransformActionFeedback.h, /home/robotino/robotino_ws/devel/include/tf2_msgs/LookupTransformActionFeedback.h)
Linked: (/home/robotino/robotino_ws/devel/.private/tf2_msgs/include/tf2_msgs/LookupTransformAction.h, /home/robotino/robotino_ws/devel/include/tf2_msgs/LookupTransformAction.h)
Linked: (/home/robotino/robotino_ws/devel/.private/tf2_msgs/include/tf2_msgs/LookupTransformResult.h, /home/robotino/robotino_ws/devel/include/tf2_msgs/LookupTransformResult.h)
Linked: (/home/robotino/robotino_ws/devel/.private/tf2_msgs/include/tf2_msgs/LookupTransformFeedback.h, /home/robotino/robotino_ws/devel/include/tf2_msgs/LookupTransformFeedback.h)
Linked: (/home/robotino/robotino_ws/devel/.private/tf2_msgs/include/tf2_msgs/TFMessage.h, /home/robotino/robotino_ws/devel/include/tf2_msgs/TFMessage.h)
Linked: (/home/robotino/robotino_ws/devel/.private/tf2_msgs/include/tf2_msgs/LookupTransformActionResult.h, /home/robotino/robotino_ws/devel/include/tf2_msgs/LookupTransformActionResult.h)
Linked: (/home/robotino/robotino_ws/devel/.private/tf2_msgs/include/tf2_msgs/FrameGraph.h, /home/robotino/robotino_ws/devel/include/tf2_msgs/FrameGraph.h)
