In file included from [01m[K/home/robotino/robotino_ws/src/navigation/costmap_2d/src/observation_buffer.cpp:39:0[m[K:
[01m[K/home/robotino/robotino_ws/src/geometry2/tf2_geometry_msgs/include/tf2_geometry_msgs/tf2_geometry_msgs.h:1009:55:[m[K [01;31m[Kerror: [m[K‘[01m[Karray[m[K’ is not a member of ‘[01m[Kstd[m[K’
 geometry_msgs::WrenchStamped toMsg(const tf2::Stamped<std::array<tf2::Vector3, 2>>& in, geometry_msgs::WrenchStamped & out)
[01;32m[K                                                       ^[m[K
[01m[K/home/robotino/robotino_ws/src/geometry2/tf2_geometry_msgs/include/tf2_geometry_msgs/tf2_geometry_msgs.h:1009:55:[m[K [01;36m[Knote: [m[Ksuggested alternative:
In file included from [01m[K/opt/ros/kinetic/include/ros/serialization.h:45:0[m[K,
                 from [01m[K/opt/ros/kinetic/include/geometry_msgs/Point.h:14[m[K,
                 from [01m[K/home/robotino/robotino_ws/src/navigation/costmap_2d/include/costmap_2d/observation.h:35[m[K,
                 from [01m[K/home/robotino/robotino_ws/src/navigation/costmap_2d/include/costmap_2d/observation_buffer.h:44[m[K,
                 from [01m[K/home/robotino/robotino_ws/src/navigation/costmap_2d/src/observation_buffer.cpp:37[m[K:
[01m[K/usr/include/boost/array.hpp:60:11:[m[K [01;36m[Knote: [m[K  ‘[01m[Kboost::array[m[K’
     class array {
[01;32m[K           ^[m[K
In file included from [01m[K/home/robotino/robotino_ws/src/navigation/costmap_2d/src/observation_buffer.cpp:39:0[m[K:
[01m[K/home/robotino/robotino_ws/src/geometry2/tf2_geometry_msgs/include/tf2_geometry_msgs/tf2_geometry_msgs.h:1009:55:[m[K [01;31m[Kerror: [m[K‘[01m[Karray[m[K’ is not a member of ‘[01m[Kstd[m[K’
 geometry_msgs::WrenchStamped toMsg(const tf2::Stamped<std::array<tf2::Vector3, 2>>& in, geometry_msgs::WrenchStamped & out)
[01;32m[K                                                       ^[m[K
[01m[K/home/robotino/robotino_ws/src/geometry2/tf2_geometry_msgs/include/tf2_geometry_msgs/tf2_geometry_msgs.h:1009:55:[m[K [01;36m[Knote: [m[Ksuggested alternative:
In file included from [01m[K/opt/ros/kinetic/include/ros/serialization.h:45:0[m[K,
                 from [01m[K/opt/ros/kinetic/include/geometry_msgs/Point.h:14[m[K,
                 from [01m[K/home/robotino/robotino_ws/src/navigation/costmap_2d/include/costmap_2d/observation.h:35[m[K,
                 from [01m[K/home/robotino/robotino_ws/src/navigation/costmap_2d/include/costmap_2d/observation_buffer.h:44[m[K,
                 from [01m[K/home/robotino/robotino_ws/src/navigation/costmap_2d/src/observation_buffer.cpp:37[m[K:
[01m[K/usr/include/boost/array.hpp:60:11:[m[K [01;36m[Knote: [m[K  ‘[01m[Kboost::array[m[K’
     class array {
[01;32m[K           ^[m[K
In file included from [01m[K/home/robotino/robotino_ws/src/navigation/costmap_2d/src/observation_buffer.cpp:39:0[m[K:
[01m[K/home/robotino/robotino_ws/src/geometry2/tf2_geometry_msgs/include/tf2_geometry_msgs/tf2_geometry_msgs.h:1009:81:[m[K [01;31m[Kerror: [m[Kspurious ‘[01m[K>>[m[K’, use ‘[01m[K>[m[K’ to terminate a template argument list
 geometry_msgs::WrenchStamped toMsg(const tf2::Stamped<std::array<tf2::Vector3, 2>>& in, geometry_msgs::WrenchStamped & out)
[01;32m[K                                                                                 ^[m[K
[01m[K/home/robotino/robotino_ws/src/geometry2/tf2_geometry_msgs/include/tf2_geometry_msgs/tf2_geometry_msgs.h:1009:81:[m[K [01;31m[Kerror: [m[Kwrong number of template arguments (2, should be 1)
In file included from [01m[K/home/robotino/robotino_ws/src/geometry2/tf2_ros/include/tf2_ros/buffer_interface.h:36:0[m[K,
                 from [01m[K/home/robotino/robotino_ws/src/geometry2/tf2_ros/include/tf2_ros/buffer.h:35[m[K,
                 from [01m[K/home/robotino/robotino_ws/src/navigation/costmap_2d/include/costmap_2d/observation_buffer.h:45[m[K,
                 from [01m[K/home/robotino/robotino_ws/src/navigation/costmap_2d/src/observation_buffer.cpp:37[m[K:
[01m[K/home/robotino/robotino_ws/src/geometry2/tf2/include/tf2/transform_datatypes.h:44:7:[m[K [01;36m[Knote: [m[Kprovided for ‘[01m[Ktemplate<class T> class tf2::Stamped[m[K’
 class Stamped : public T{
[01;32m[K       ^[m[K
In file included from [01m[K/home/robotino/robotino_ws/src/navigation/costmap_2d/src/observation_buffer.cpp:39:0[m[K:
[01m[K/home/robotino/robotino_ws/src/geometry2/tf2_geometry_msgs/include/tf2_geometry_msgs/tf2_geometry_msgs.h:1009:55:[m[K [01;31m[Kerror: [m[K‘[01m[Karray[m[K’ is not a member of ‘[01m[Kstd[m[K’
 geometry_msgs::WrenchStamped toMsg(const tf2::Stamped<std::array<tf2::Vector3, 2>>& in, geometry_msgs::WrenchStamped & out)
[01;32m[K                                                       ^[m[K
[01m[K/home/robotino/robotino_ws/src/geometry2/tf2_geometry_msgs/include/tf2_geometry_msgs/tf2_geometry_msgs.h:1009:55:[m[K [01;36m[Knote: [m[Ksuggested alternative:
In file included from [01m[K/opt/ros/kinetic/include/ros/serialization.h:45:0[m[K,
                 from [01m[K/opt/ros/kinetic/include/geometry_msgs/Point.h:14[m[K,
                 from [01m[K/home/robotino/robotino_ws/src/navigation/costmap_2d/include/costmap_2d/observation.h:35[m[K,
                 from [01m[K/home/robotino/robotino_ws/src/navigation/costmap_2d/include/costmap_2d/observation_buffer.h:44[m[K,
                 from [01m[K/home/robotino/robotino_ws/src/navigation/costmap_2d/src/observation_buffer.cpp:37[m[K:
[01m[K/usr/include/boost/array.hpp:60:11:[m[K [01;36m[Knote: [m[K  ‘[01m[Kboost::array[m[K’
     class array {
[01;32m[K           ^[m[K
In file included from [01m[K/home/robotino/robotino_ws/src/navigation/costmap_2d/src/observation_buffer.cpp:39:0[m[K:
[01m[K/home/robotino/robotino_ws/src/geometry2/tf2_geometry_msgs/include/tf2_geometry_msgs/tf2_geometry_msgs.h:1009:55:[m[K [01;31m[Kerror: [m[K‘[01m[Karray[m[K’ is not a member of ‘[01m[Kstd[m[K’
 geometry_msgs::WrenchStamped toMsg(const tf2::Stamped<std::array<tf2::Vector3, 2>>& in, geometry_msgs::WrenchStamped & out)
[01;32m[K                                                       ^[m[K
[01m[K/home/robotino/robotino_ws/src/geometry2/tf2_geometry_msgs/include/tf2_geometry_msgs/tf2_geometry_msgs.h:1009:55:[m[K [01;36m[Knote: [m[Ksuggested alternative:
In file included from [01m[K/opt/ros/kinetic/include/ros/serialization.h:45:0[m[K,
                 from [01m[K/opt/ros/kinetic/include/geometry_msgs/Point.h:14[m[K,
                 from [01m[K/home/robotino/robotino_ws/src/navigation/costmap_2d/include/costmap_2d/observation.h:35[m[K,
                 from [01m[K/home/robotino/robotino_ws/src/navigation/costmap_2d/include/costmap_2d/observation_buffer.h:44[m[K,
                 from [01m[K/home/robotino/robotino_ws/src/navigation/costmap_2d/src/observation_buffer.cpp:37[m[K:
[01m[K/usr/include/boost/array.hpp:60:11:[m[K [01;36m[Knote: [m[K  ‘[01m[Kboost::array[m[K’
     class array {
[01;32m[K           ^[m[K
In file included from [01m[K/home/robotino/robotino_ws/src/navigation/costmap_2d/src/observation_buffer.cpp:39:0[m[K:
[01m[K/home/robotino/robotino_ws/src/geometry2/tf2_geometry_msgs/include/tf2_geometry_msgs/tf2_geometry_msgs.h:1009:81:[m[K [01;31m[Kerror: [m[Kspurious ‘[01m[K>>[m[K’, use ‘[01m[K>[m[K’ to terminate a template argument list
 geometry_msgs::WrenchStamped toMsg(const tf2::Stamped<std::array<tf2::Vector3, 2>>& in, geometry_msgs::WrenchStamped & out)
[01;32m[K                                                                                 ^[m[K
[01m[K/home/robotino/robotino_ws/src/geometry2/tf2_geometry_msgs/include/tf2_geometry_msgs/tf2_geometry_msgs.h:1009:81:[m[K [01;31m[Kerror: [m[Kwrong number of template arguments (2, should be 1)
In file included from [01m[K/home/robotino/robotino_ws/src/geometry2/tf2_ros/include/tf2_ros/buffer_interface.h:36:0[m[K,
                 from [01m[K/home/robotino/robotino_ws/src/geometry2/tf2_ros/include/tf2_ros/buffer.h:35[m[K,
                 from [01m[K/home/robotino/robotino_ws/src/navigation/costmap_2d/include/costmap_2d/observation_buffer.h:45[m[K,
                 from [01m[K/home/robotino/robotino_ws/src/navigation/costmap_2d/src/observation_buffer.cpp:37[m[K:
[01m[K/home/robotino/robotino_ws/src/geometry2/tf2/include/tf2/transform_datatypes.h:44:7:[m[K [01;36m[Knote: [m[Kprovided for ‘[01m[Ktemplate<class T> class tf2::Stamped[m[K’
 class Stamped : public T{
[01;32m[K       ^[m[K
In file included from [01m[K/home/robotino/robotino_ws/src/navigation/costmap_2d/src/observation_buffer.cpp:39:0[m[K:
[01m[K/home/robotino/robotino_ws/src/geometry2/tf2_geometry_msgs/include/tf2_geometry_msgs/tf2_geometry_msgs.h:1009:55:[m[K [01;31m[Kerror: [m[K‘[01m[Karray[m[K’ is not a member of ‘[01m[Kstd[m[K’
 geometry_msgs::WrenchStamped toMsg(const tf2::Stamped<std::array<tf2::Vector3, 2>>& in, geometry_msgs::WrenchStamped & out)
[01;32m[K                                                       ^[m[K
[01m[K/home/robotino/robotino_ws/src/geometry2/tf2_geometry_msgs/include/tf2_geometry_msgs/tf2_geometry_msgs.h:1009:55:[m[K [01;36m[Knote: [m[Ksuggested alternative:
In file included from [01m[K/opt/ros/kinetic/include/ros/serialization.h:45:0[m[K,
                 from [01m[K/opt/ros/kinetic/include/geometry_msgs/Point.h:14[m[K,
                 from [01m[K/home/robotino/robotino_ws/src/navigation/costmap_2d/include/costmap_2d/observation.h:35[m[K,
                 from [01m[K/home/robotino/robotino_ws/src/navigation/costmap_2d/include/costmap_2d/observation_buffer.h:44[m[K,
                 from [01m[K/home/robotino/robotino_ws/src/navigation/costmap_2d/src/observation_buffer.cpp:37[m[K:
[01m[K/usr/include/boost/array.hpp:60:11:[m[K [01;36m[Knote: [m[K  ‘[01m[Kboost::array[m[K’
     class array {
[01;32m[K           ^[m[K
In file included from [01m[K/home/robotino/robotino_ws/src/navigation/costmap_2d/src/observation_buffer.cpp:39:0[m[K:
[01m[K/home/robotino/robotino_ws/src/geometry2/tf2_geometry_msgs/include/tf2_geometry_msgs/tf2_geometry_msgs.h:1009:55:[m[K [01;31m[Kerror: [m[K‘[01m[Karray[m[K’ is not a member of ‘[01m[Kstd[m[K’
 geometry_msgs::WrenchStamped toMsg(const tf2::Stamped<std::array<tf2::Vector3, 2>>& in, geometry_msgs::WrenchStamped & out)
[01;32m[K                                                       ^[m[K
[01m[K/home/robotino/robotino_ws/src/geometry2/tf2_geometry_msgs/include/tf2_geometry_msgs/tf2_geometry_msgs.h:1009:55:[m[K [01;36m[Knote: [m[Ksuggested alternative:
In file included from [01m[K/opt/ros/kinetic/include/ros/serialization.h:45:0[m[K,
                 from [01m[K/opt/ros/kinetic/include/geometry_msgs/Point.h:14[m[K,
                 from [01m[K/home/robotino/robotino_ws/src/navigation/costmap_2d/include/costmap_2d/observation.h:35[m[K,
                 from [01m[K/home/robotino/robotino_ws/src/navigation/costmap_2d/include/costmap_2d/observation_buffer.h:44[m[K,
                 from [01m[K/home/robotino/robotino_ws/src/navigation/costmap_2d/src/observation_buffer.cpp:37[m[K:
[01m[K/usr/include/boost/array.hpp:60:11:[m[K [01;36m[Knote: [m[K  ‘[01m[Kboost::array[m[K’
     class array {
[01;32m[K           ^[m[K
In file included from [01m[K/home/robotino/robotino_ws/src/navigation/costmap_2d/src/observation_buffer.cpp:39:0[m[K:
[01m[K/home/robotino/robotino_ws/src/geometry2/tf2_geometry_msgs/include/tf2_geometry_msgs/tf2_geometry_msgs.h:1009:81:[m[K [01;31m[Kerror: [m[Kspurious ‘[01m[K>>[m[K’, use ‘[01m[K>[m[K’ to terminate a template argument list
 geometry_msgs::WrenchStamped toMsg(const tf2::Stamped<std::array<tf2::Vector3, 2>>& in, geometry_msgs::WrenchStamped & out)
[01;32m[K                                                                                 ^[m[K
[01m[K/home/robotino/robotino_ws/src/geometry2/tf2_geometry_msgs/include/tf2_geometry_msgs/tf2_geometry_msgs.h:1009:81:[m[K [01;31m[Kerror: [m[Kwrong number of template arguments (2, should be 1)
In file included from [01m[K/home/robotino/robotino_ws/src/geometry2/tf2_ros/include/tf2_ros/buffer_interface.h:36:0[m[K,
                 from [01m[K/home/robotino/robotino_ws/src/geometry2/tf2_ros/include/tf2_ros/buffer.h:35[m[K,
                 from [01m[K/home/robotino/robotino_ws/src/navigation/costmap_2d/include/costmap_2d/observation_buffer.h:45[m[K,
                 from [01m[K/home/robotino/robotino_ws/src/navigation/costmap_2d/src/observation_buffer.cpp:37[m[K:
[01m[K/home/robotino/robotino_ws/src/geometry2/tf2/include/tf2/transform_datatypes.h:44:7:[m[K [01;36m[Knote: [m[Kprovided for ‘[01m[Ktemplate<class T> class tf2::Stamped[m[K’
 class Stamped : public T{
[01;32m[K       ^[m[K
In file included from [01m[K/home/robotino/robotino_ws/src/navigation/costmap_2d/src/observation_buffer.cpp:39:0[m[K:
[01m[K/home/robotino/robotino_ws/src/geometry2/tf2_geometry_msgs/include/tf2_geometry_msgs/tf2_geometry_msgs.h:1009:55:[m[K [01;31m[Kerror: [m[K‘[01m[Karray[m[K’ is not a member of ‘[01m[Kstd[m[K’
 geometry_msgs::WrenchStamped toMsg(const tf2::Stamped<std::array<tf2::Vector3, 2>>& in, geometry_msgs::WrenchStamped & out)
[01;32m[K                                                       ^[m[K
[01m[K/home/robotino/robotino_ws/src/geometry2/tf2_geometry_msgs/include/tf2_geometry_msgs/tf2_geometry_msgs.h:1009:55:[m[K [01;36m[Knote: [m[Ksuggested alternative:
In file included from [01m[K/opt/ros/kinetic/include/ros/serialization.h:45:0[m[K,
                 from [01m[K/opt/ros/kinetic/include/geometry_msgs/Point.h:14[m[K,
                 from [01m[K/home/robotino/robotino_ws/src/navigation/costmap_2d/include/costmap_2d/observation.h:35[m[K,
                 from [01m[K/home/robotino/robotino_ws/src/navigation/costmap_2d/include/costmap_2d/observation_buffer.h:44[m[K,
                 from [01m[K/home/robotino/robotino_ws/src/navigation/costmap_2d/src/observation_buffer.cpp:37[m[K:
[01m[K/usr/include/boost/array.hpp:60:11:[m[K [01;36m[Knote: [m[K  ‘[01m[Kboost::array[m[K’
     class array {
[01;32m[K           ^[m[K
In file included from [01m[K/home/robotino/robotino_ws/src/navigation/costmap_2d/src/observation_buffer.cpp:39:0[m[K:
[01m[K/home/robotino/robotino_ws/src/geometry2/tf2_geometry_msgs/include/tf2_geometry_msgs/tf2_geometry_msgs.h:1009:55:[m[K [01;31m[Kerror: [m[K‘[01m[Karray[m[K’ is not a member of ‘[01m[Kstd[m[K’
 geometry_msgs::WrenchStamped toMsg(const tf2::Stamped<std::array<tf2::Vector3, 2>>& in, geometry_msgs::WrenchStamped & out)
[01;32m[K                                                       ^[m[K
[01m[K/home/robotino/robotino_ws/src/geometry2/tf2_geometry_msgs/include/tf2_geometry_msgs/tf2_geometry_msgs.h:1009:55:[m[K [01;36m[Knote: [m[Ksuggested alternative:
In file included from [01m[K/opt/ros/kinetic/include/ros/serialization.h:45:0[m[K,
                 from [01m[K/opt/ros/kinetic/include/geometry_msgs/Point.h:14[m[K,
                 from [01m[K/home/robotino/robotino_ws/src/navigation/costmap_2d/include/costmap_2d/observation.h:35[m[K,
                 from [01m[K/home/robotino/robotino_ws/src/navigation/costmap_2d/include/costmap_2d/observation_buffer.h:44[m[K,
                 from [01m[K/home/robotino/robotino_ws/src/navigation/costmap_2d/src/observation_buffer.cpp:37[m[K:
[01m[K/usr/include/boost/array.hpp:60:11:[m[K [01;36m[Knote: [m[K  ‘[01m[Kboost::array[m[K’
     class array {
[01;32m[K           ^[m[K
In file included from [01m[K/home/robotino/robotino_ws/src/navigation/costmap_2d/src/observation_buffer.cpp:39:0[m[K:
[01m[K/home/robotino/robotino_ws/src/geometry2/tf2_geometry_msgs/include/tf2_geometry_msgs/tf2_geometry_msgs.h:1009:81:[m[K [01;31m[Kerror: [m[Kspurious ‘[01m[K>>[m[K’, use ‘[01m[K>[m[K’ to terminate a template argument list
 geometry_msgs::WrenchStamped toMsg(const tf2::Stamped<std::array<tf2::Vector3, 2>>& in, geometry_msgs::WrenchStamped & out)
[01;32m[K                                                                                 ^[m[K
[01m[K/home/robotino/robotino_ws/src/geometry2/tf2_geometry_msgs/include/tf2_geometry_msgs/tf2_geometry_msgs.h:1009:81:[m[K [01;31m[Kerror: [m[Kwrong number of template arguments (2, should be 1)
In file included from [01m[K/home/robotino/robotino_ws/src/geometry2/tf2_ros/include/tf2_ros/buffer_interface.h:36:0[m[K,
                 from [01m[K/home/robotino/robotino_ws/src/geometry2/tf2_ros/include/tf2_ros/buffer.h:35[m[K,
                 from [01m[K/home/robotino/robotino_ws/src/navigation/costmap_2d/include/costmap_2d/observation_buffer.h:45[m[K,
                 from [01m[K/home/robotino/robotino_ws/src/navigation/costmap_2d/src/observation_buffer.cpp:37[m[K:
[01m[K/home/robotino/robotino_ws/src/geometry2/tf2/include/tf2/transform_datatypes.h:44:7:[m[K [01;36m[Knote: [m[Kprovided for ‘[01m[Ktemplate<class T> class tf2::Stamped[m[K’
 class Stamped : public T{
[01;32m[K       ^[m[K
In file included from [01m[K/home/robotino/robotino_ws/src/navigation/costmap_2d/src/observation_buffer.cpp:39:0[m[K:
[01m[K/home/robotino/robotino_ws/src/geometry2/tf2_geometry_msgs/include/tf2_geometry_msgs/tf2_geometry_msgs.h:1009:42:[m[K [01;31m[Kerror: [m[Kinvalid use of template-name ‘[01m[Ktf2::Stamped[m[K’ without an argument list
 geometry_msgs::WrenchStamped toMsg(const tf2::Stamped<std::array<tf2::Vector3, 2>>& in, geometry_msgs::WrenchStamped & out)
[01;32m[K                                          ^[m[K
[01m[K/home/robotino/robotino_ws/src/geometry2/tf2_geometry_msgs/include/tf2_geometry_msgs/tf2_geometry_msgs.h:1009:54:[m[K [01;31m[Kerror: [m[Kexpected ‘[01m[K,[m[K’ or ‘[01m[K...[m[K’ before ‘[01m[K<[m[K’ token
 geometry_msgs::WrenchStamped toMsg(const tf2::Stamped<std::array<tf2::Vector3, 2>>& in, geometry_msgs::WrenchStamped & out)
[01;32m[K                                                      ^[m[K
[01m[K/home/robotino/robotino_ws/src/geometry2/tf2_geometry_msgs/include/tf2_geometry_msgs/tf2_geometry_msgs.h:[m[K In function ‘[01m[Kgeometry_msgs::WrenchStamped tf2::toMsg(int)[m[K’:
[01m[K/home/robotino/robotino_ws/src/geometry2/tf2_geometry_msgs/include/tf2_geometry_msgs/tf2_geometry_msgs.h:1011:3:[m[K [01;31m[Kerror: [m[K‘[01m[Kout[m[K’ was not declared in this scope
   out.header.stamp = in.stamp_;
[01;32m[K   ^[m[K
[01m[K/home/robotino/robotino_ws/src/geometry2/tf2_geometry_msgs/include/tf2_geometry_msgs/tf2_geometry_msgs.h:1011:22:[m[K [01;31m[Kerror: [m[K‘[01m[Kin[m[K’ was not declared in this scope
   out.header.stamp = in.stamp_;
[01;32m[K                      ^[m[K
[01m[K/home/robotino/robotino_ws/src/geometry2/tf2_geometry_msgs/include/tf2_geometry_msgs/tf2_geometry_msgs.h:[m[K At global scope:
[01m[K/home/robotino/robotino_ws/src/geometry2/tf2_geometry_msgs/include/tf2_geometry_msgs/tf2_geometry_msgs.h:1020:68:[m[K [01;31m[Kerror: [m[K‘[01m[Karray[m[K’ is not a member of ‘[01m[Kstd[m[K’
 void fromMsg(const geometry_msgs::WrenchStamped& msg, tf2::Stamped<std::array<tf2::Vector3, 2>>& out)
[01;32m[K                                                                    ^[m[K
[01m[K/home/robotino/robotino_ws/src/geometry2/tf2_geometry_msgs/include/tf2_geometry_msgs/tf2_geometry_msgs.h:1020:68:[m[K [01;36m[Knote: [m[Ksuggested alternative:
In file included from [01m[K/opt/ros/kinetic/include/ros/serialization.h:45:0[m[K,
                 from [01m[K/opt/ros/kinetic/include/geometry_msgs/Point.h:14[m[K,
                 from [01m[K/home/robotino/robotino_ws/src/navigation/costmap_2d/include/costmap_2d/observation.h:35[m[K,
                 from [01m[K/home/robotino/robotino_ws/src/navigation/costmap_2d/include/costmap_2d/observation_buffer.h:44[m[K,
                 from [01m[K/home/robotino/robotino_ws/src/navigation/costmap_2d/src/observation_buffer.cpp:37[m[K:
[01m[K/usr/include/boost/array.hpp:60:11:[m[K [01;36m[Knote: [m[K  ‘[01m[Kboost::array[m[K’
     class array {
[01;32m[K           ^[m[K
In file included from [01m[K/home/robotino/robotino_ws/src/navigation/costmap_2d/src/observation_buffer.cpp:39:0[m[K:
[01m[K/home/robotino/robotino_ws/src/geometry2/tf2_geometry_msgs/include/tf2_geometry_msgs/tf2_geometry_msgs.h:1020:68:[m[K [01;31m[Kerror: [m[K‘[01m[Karray[m[K’ is not a member of ‘[01m[Kstd[m[K’
 void fromMsg(const geometry_msgs::WrenchStamped& msg, tf2::Stamped<std::array<tf2::Vector3, 2>>& out)
[01;32m[K                                                                    ^[m[K
[01m[K/home/robotino/robotino_ws/src/geometry2/tf2_geometry_msgs/include/tf2_geometry_msgs/tf2_geometry_msgs.h:1020:68:[m[K [01;36m[Knote: [m[Ksuggested alternative:
In file included from [01m[K/opt/ros/kinetic/include/ros/serialization.h:45:0[m[K,
                 from [01m[K/opt/ros/kinetic/include/geometry_msgs/Point.h:14[m[K,
                 from [01m[K/home/robotino/robotino_ws/src/navigation/costmap_2d/include/costmap_2d/observation.h:35[m[K,
                 from [01m[K/home/robotino/robotino_ws/src/navigation/costmap_2d/include/costmap_2d/observation_buffer.h:44[m[K,
                 from [01m[K/home/robotino/robotino_ws/src/navigation/costmap_2d/src/observation_buffer.cpp:37[m[K:
[01m[K/usr/include/boost/array.hpp:60:11:[m[K [01;36m[Knote: [m[K  ‘[01m[Kboost::array[m[K’
     class array {
[01;32m[K           ^[m[K
In file included from [01m[K/home/robotino/robotino_ws/src/navigation/costmap_2d/src/observation_buffer.cpp:39:0[m[K:
[01m[K/home/robotino/robotino_ws/src/geometry2/tf2_geometry_msgs/include/tf2_geometry_msgs/tf2_geometry_msgs.h:1020:94:[m[K [01;31m[Kerror: [m[Kspurious ‘[01m[K>>[m[K’, use ‘[01m[K>[m[K’ to terminate a template argument list
 void fromMsg(const geometry_msgs::WrenchStamped& msg, tf2::Stamped<std::array<tf2::Vector3, 2>>& out)
[01;32m[K                                                                                              ^[m[K
[01m[K/home/robotino/robotino_ws/src/geometry2/tf2_geometry_msgs/include/tf2_geometry_msgs/tf2_geometry_msgs.h:1020:94:[m[K [01;31m[Kerror: [m[Kwrong number of template arguments (2, should be 1)
In file included from [01m[K/home/robotino/robotino_ws/src/geometry2/tf2_ros/include/tf2_ros/buffer_interface.h:36:0[m[K,
                 from [01m[K/home/robotino/robotino_ws/src/geometry2/tf2_ros/include/tf2_ros/buffer.h:35[m[K,
                 from [01m[K/home/robotino/robotino_ws/src/navigation/costmap_2d/include/costmap_2d/observation_buffer.h:45[m[K,
                 from [01m[K/home/robotino/robotino_ws/src/navigation/costmap_2d/src/observation_buffer.cpp:37[m[K:
[01m[K/home/robotino/robotino_ws/src/geometry2/tf2/include/tf2/transform_datatypes.h:44:7:[m[K [01;36m[Knote: [m[Kprovided for ‘[01m[Ktemplate<class T> class tf2::Stamped[m[K’
 class Stamped : public T{
[01;32m[K       ^[m[K
In file included from [01m[K/home/robotino/robotino_ws/src/navigation/costmap_2d/src/observation_buffer.cpp:39:0[m[K:
[01m[K/home/robotino/robotino_ws/src/geometry2/tf2_geometry_msgs/include/tf2_geometry_msgs/tf2_geometry_msgs.h:1020:68:[m[K [01;31m[Kerror: [m[K‘[01m[Karray[m[K’ is not a member of ‘[01m[Kstd[m[K’
 void fromMsg(const geometry_msgs::WrenchStamped& msg, tf2::Stamped<std::array<tf2::Vector3, 2>>& out)
[01;32m[K                                                                    ^[m[K
[01m[K/home/robotino/robotino_ws/src/geometry2/tf2_geometry_msgs/include/tf2_geometry_msgs/tf2_geometry_msgs.h:1020:68:[m[K [01;36m[Knote: [m[Ksuggested alternative:
In file included from [01m[K/opt/ros/kinetic/include/ros/serialization.h:45:0[m[K,
                 from [01m[K/opt/ros/kinetic/include/geometry_msgs/Point.h:14[m[K,
                 from [01m[K/home/robotino/robotino_ws/src/navigation/costmap_2d/include/costmap_2d/observation.h:35[m[K,
                 from [01m[K/home/robotino/robotino_ws/src/navigation/costmap_2d/include/costmap_2d/observation_buffer.h:44[m[K,
                 from [01m[K/home/robotino/robotino_ws/src/navigation/costmap_2d/src/observation_buffer.cpp:37[m[K:
[01m[K/usr/include/boost/array.hpp:60:11:[m[K [01;36m[Knote: [m[K  ‘[01m[Kboost::array[m[K’
     class array {
[01;32m[K           ^[m[K
In file included from [01m[K/home/robotino/robotino_ws/src/navigation/costmap_2d/src/observation_buffer.cpp:39:0[m[K:
[01m[K/home/robotino/robotino_ws/src/geometry2/tf2_geometry_msgs/include/tf2_geometry_msgs/tf2_geometry_msgs.h:1020:68:[m[K [01;31m[Kerror: [m[K‘[01m[Karray[m[K’ is not a member of ‘[01m[Kstd[m[K’
 void fromMsg(const geometry_msgs::WrenchStamped& msg, tf2::Stamped<std::array<tf2::Vector3, 2>>& out)
[01;32m[K                                                                    ^[m[K
[01m[K/home/robotino/robotino_ws/src/geometry2/tf2_geometry_msgs/include/tf2_geometry_msgs/tf2_geometry_msgs.h:1020:68:[m[K [01;36m[Knote: [m[Ksuggested alternative:
In file included from [01m[K/opt/ros/kinetic/include/ros/serialization.h:45:0[m[K,
                 from [01m[K/opt/ros/kinetic/include/geometry_msgs/Point.h:14[m[K,
                 from [01m[K/home/robotino/robotino_ws/src/navigation/costmap_2d/include/costmap_2d/observation.h:35[m[K,
                 from [01m[K/home/robotino/robotino_ws/src/navigation/costmap_2d/include/costmap_2d/observation_buffer.h:44[m[K,
                 from [01m[K/home/robotino/robotino_ws/src/navigation/costmap_2d/src/observation_buffer.cpp:37[m[K:
[01m[K/usr/include/boost/array.hpp:60:11:[m[K [01;36m[Knote: [m[K  ‘[01m[Kboost::array[m[K’
     class array {
[01;32m[K           ^[m[K
In file included from [01m[K/home/robotino/robotino_ws/src/navigation/costmap_2d/src/observation_buffer.cpp:39:0[m[K:
[01m[K/home/robotino/robotino_ws/src/geometry2/tf2_geometry_msgs/include/tf2_geometry_msgs/tf2_geometry_msgs.h:1020:94:[m[K [01;31m[Kerror: [m[Kspurious ‘[01m[K>>[m[K’, use ‘[01m[K>[m[K’ to terminate a template argument list
 void fromMsg(const geometry_msgs::WrenchStamped& msg, tf2::Stamped<std::array<tf2::Vector3, 2>>& out)
[01;32m[K                                                                                              ^[m[K
[01m[K/home/robotino/robotino_ws/src/geometry2/tf2_geometry_msgs/include/tf2_geometry_msgs/tf2_geometry_msgs.h:1020:94:[m[K [01;31m[Kerror: [m[Kwrong number of template arguments (2, should be 1)
In file included from [01m[K/home/robotino/robotino_ws/src/geometry2/tf2_ros/include/tf2_ros/buffer_interface.h:36:0[m[K,
                 from [01m[K/home/robotino/robotino_ws/src/geometry2/tf2_ros/include/tf2_ros/buffer.h:35[m[K,
                 from [01m[K/home/robotino/robotino_ws/src/navigation/costmap_2d/include/costmap_2d/observation_buffer.h:45[m[K,
                 from [01m[K/home/robotino/robotino_ws/src/navigation/costmap_2d/src/observation_buffer.cpp:37[m[K:
[01m[K/home/robotino/robotino_ws/src/geometry2/tf2/include/tf2/transform_datatypes.h:44:7:[m[K [01;36m[Knote: [m[Kprovided for ‘[01m[Ktemplate<class T> class tf2::Stamped[m[K’
 class Stamped : public T{
[01;32m[K       ^[m[K
In file included from [01m[K/home/robotino/robotino_ws/src/navigation/costmap_2d/src/observation_buffer.cpp:39:0[m[K:
[01m[K/home/robotino/robotino_ws/src/geometry2/tf2_geometry_msgs/include/tf2_geometry_msgs/tf2_geometry_msgs.h:1020:60:[m[K [01;31m[Kerror: [m[K‘[01m[Ktf2::Stamped[m[K’ is not a type
 void fromMsg(const geometry_msgs::WrenchStamped& msg, tf2::Stamped<std::array<tf2::Vector3, 2>>& out)
[01;32m[K                                                            ^[m[K
[01m[K/home/robotino/robotino_ws/src/geometry2/tf2_geometry_msgs/include/tf2_geometry_msgs/tf2_geometry_msgs.h:1020:67:[m[K [01;31m[Kerror: [m[Kexpected ‘[01m[K,[m[K’ or ‘[01m[K...[m[K’ before ‘[01m[K<[m[K’ token
 void fromMsg(const geometry_msgs::WrenchStamped& msg, tf2::Stamped<std::array<tf2::Vector3, 2>>& out)
[01;32m[K                                                                   ^[m[K
[01m[K/home/robotino/robotino_ws/src/geometry2/tf2_geometry_msgs/include/tf2_geometry_msgs/tf2_geometry_msgs.h:[m[K In function ‘[01m[Kvoid tf2::fromMsg(const WrenchStamped&, int)[m[K’:
[01m[K/home/robotino/robotino_ws/src/geometry2/tf2_geometry_msgs/include/tf2_geometry_msgs/tf2_geometry_msgs.h:1022:3:[m[K [01;31m[Kerror: [m[K‘[01m[Kout[m[K’ was not declared in this scope
   out.stamp_ = msg.header.stamp;
[01;32m[K   ^[m[K
[01m[K/home/robotino/robotino_ws/src/geometry2/tf2_geometry_msgs/include/tf2_geometry_msgs/tf2_geometry_msgs.h:1028:3:[m[K [01;31m[Kerror: [m[K‘[01m[Karray[m[K’ is not a member of ‘[01m[Kstd[m[K’
   std::array<tf2::Vector3, 2> tmp_array;
[01;32m[K   ^[m[K
[01m[K/home/robotino/robotino_ws/src/geometry2/tf2_geometry_msgs/include/tf2_geometry_msgs/tf2_geometry_msgs.h:1028:3:[m[K [01;36m[Knote: [m[Ksuggested alternative:
In file included from [01m[K/opt/ros/kinetic/include/ros/serialization.h:45:0[m[K,
                 from [01m[K/opt/ros/kinetic/include/geometry_msgs/Point.h:14[m[K,
                 from [01m[K/home/robotino/robotino_ws/src/navigation/costmap_2d/include/costmap_2d/observation.h:35[m[K,
                 from [01m[K/home/robotino/robotino_ws/src/navigation/costmap_2d/include/costmap_2d/observation_buffer.h:44[m[K,
                 from [01m[K/home/robotino/robotino_ws/src/navigation/costmap_2d/src/observation_buffer.cpp:37[m[K:
[01m[K/usr/include/boost/array.hpp:60:11:[m[K [01;36m[Knote: [m[K  ‘[01m[Kboost::array[m[K’
     class array {
[01;32m[K           ^[m[K
In file included from [01m[K/home/robotino/robotino_ws/src/navigation/costmap_2d/src/observation_buffer.cpp:39:0[m[K:
[01m[K/home/robotino/robotino_ws/src/geometry2/tf2_geometry_msgs/include/tf2_geometry_msgs/tf2_geometry_msgs.h:1028:26:[m[K [01;31m[Kerror: [m[Kexpected primary-expression before ‘[01m[K,[m[K’ token
   std::array<tf2::Vector3, 2> tmp_array;
[01;32m[K                          ^[m[K
[01m[K/home/robotino/robotino_ws/src/geometry2/tf2_geometry_msgs/include/tf2_geometry_msgs/tf2_geometry_msgs.h:1028:31:[m[K [01;31m[Kerror: [m[K‘[01m[Ktmp_array[m[K’ was not declared in this scope
   std::array<tf2::Vector3, 2> tmp_array;
[01;32m[K                               ^[m[K
In file included from [01m[K/home/robotino/robotino_ws/src/geometry2/tf2/include/tf2/impl/utils.h:18:0[m[K,
                 from [01m[K/home/robotino/robotino_ws/src/geometry2/tf2/include/tf2/utils.h:20[m[K,
                 from [01m[K/home/robotino/robotino_ws/src/navigation/costmap_2d/src/costmap_2d_ros.cpp:45[m[K:
[01m[K/home/robotino/robotino_ws/src/geometry2/tf2_geometry_msgs/include/tf2_geometry_msgs/tf2_geometry_msgs.h:1009:55:[m[K [01;31m[Kerror: [m[K‘[01m[Karray[m[K’ is not a member of ‘[01m[Kstd[m[K’
 geometry_msgs::WrenchStamped toMsg(const tf2::Stamped<std::array<tf2::Vector3, 2>>& in, geometry_msgs::WrenchStamped & out)
[01;32m[K                                                       ^[m[K
[01m[K/home/robotino/robotino_ws/src/geometry2/tf2_geometry_msgs/include/tf2_geometry_msgs/tf2_geometry_msgs.h:1009:55:[m[K [01;36m[Knote: [m[Ksuggested alternative:
In file included from [01m[K/opt/ros/kinetic/include/ros/serialization.h:45:0[m[K,
                 from [01m[K/opt/ros/kinetic/include/geometry_msgs/Point.h:14[m[K,
                 from [01m[K/home/robotino/robotino_ws/src/navigation/costmap_2d/include/costmap_2d/costmap_2d.h:43[m[K,
                 from [01m[K/home/robotino/robotino_ws/src/navigation/costmap_2d/include/costmap_2d/layer.h:40[m[K,
                 from [01m[K/home/robotino/robotino_ws/src/navigation/costmap_2d/include/costmap_2d/layered_costmap.h:42[m[K,
                 from [01m[K/home/robotino/robotino_ws/src/navigation/costmap_2d/src/costmap_2d_ros.cpp:38[m[K:
[01m[K/usr/include/boost/array.hpp:60:11:[m[K [01;36m[Knote: [m[K  ‘[01m[Kboost::array[m[K’
     class array {
[01;32m[K           ^[m[K
In file included from [01m[K/home/robotino/robotino_ws/src/geometry2/tf2/include/tf2/impl/utils.h:18:0[m[K,
                 from [01m[K/home/robotino/robotino_ws/src/geometry2/tf2/include/tf2/utils.h:20[m[K,
                 from [01m[K/home/robotino/robotino_ws/src/navigation/costmap_2d/src/costmap_2d_ros.cpp:45[m[K:
[01m[K/home/robotino/robotino_ws/src/geometry2/tf2_geometry_msgs/include/tf2_geometry_msgs/tf2_geometry_msgs.h:1009:55:[m[K [01;31m[Kerror: [m[K‘[01m[Karray[m[K’ is not a member of ‘[01m[Kstd[m[K’
 geometry_msgs::WrenchStamped toMsg(const tf2::Stamped<std::array<tf2::Vector3, 2>>& in, geometry_msgs::WrenchStamped & out)
[01;32m[K                                                       ^[m[K
[01m[K/home/robotino/robotino_ws/src/geometry2/tf2_geometry_msgs/include/tf2_geometry_msgs/tf2_geometry_msgs.h:1009:55:[m[K [01;36m[Knote: [m[Ksuggested alternative:
In file included from [01m[K/opt/ros/kinetic/include/ros/serialization.h:45:0[m[K,
                 from [01m[K/opt/ros/kinetic/include/geometry_msgs/Point.h:14[m[K,
                 from [01m[K/home/robotino/robotino_ws/src/navigation/costmap_2d/include/costmap_2d/costmap_2d.h:43[m[K,
                 from [01m[K/home/robotino/robotino_ws/src/navigation/costmap_2d/include/costmap_2d/layer.h:40[m[K,
                 from [01m[K/home/robotino/robotino_ws/src/navigation/costmap_2d/include/costmap_2d/layered_costmap.h:42[m[K,
                 from [01m[K/home/robotino/robotino_ws/src/navigation/costmap_2d/src/costmap_2d_ros.cpp:38[m[K:
[01m[K/usr/include/boost/array.hpp:60:11:[m[K [01;36m[Knote: [m[K  ‘[01m[Kboost::array[m[K’
     class array {
[01;32m[K           ^[m[K
In file included from [01m[K/home/robotino/robotino_ws/src/geometry2/tf2/include/tf2/impl/utils.h:18:0[m[K,
                 from [01m[K/home/robotino/robotino_ws/src/geometry2/tf2/include/tf2/utils.h:20[m[K,
                 from [01m[K/home/robotino/robotino_ws/src/navigation/costmap_2d/src/costmap_2d_ros.cpp:45[m[K:
[01m[K/home/robotino/robotino_ws/src/geometry2/tf2_geometry_msgs/include/tf2_geometry_msgs/tf2_geometry_msgs.h:1009:81:[m[K [01;31m[Kerror: [m[Kspurious ‘[01m[K>>[m[K’, use ‘[01m[K>[m[K’ to terminate a template argument list
 geometry_msgs::WrenchStamped toMsg(const tf2::Stamped<std::array<tf2::Vector3, 2>>& in, geometry_msgs::WrenchStamped & out)
[01;32m[K                                                                                 ^[m[K
[01m[K/home/robotino/robotino_ws/src/geometry2/tf2_geometry_msgs/include/tf2_geometry_msgs/tf2_geometry_msgs.h:1009:81:[m[K [01;31m[Kerror: [m[Kwrong number of template arguments (2, should be 1)
In file included from [01m[K/home/robotino/robotino_ws/src/geometry2/tf2_ros/include/tf2_ros/buffer_interface.h:36:0[m[K,
                 from [01m[K/home/robotino/robotino_ws/src/geometry2/tf2_ros/include/tf2_ros/buffer.h:35[m[K,
                 from [01m[K/home/robotino/robotino_ws/src/navigation/costmap_2d/include/costmap_2d/layer.h:43[m[K,
                 from [01m[K/home/robotino/robotino_ws/src/navigation/costmap_2d/include/costmap_2d/layered_costmap.h:42[m[K,
                 from [01m[K/home/robotino/robotino_ws/src/navigation/costmap_2d/src/costmap_2d_ros.cpp:38[m[K:
[01m[K/home/robotino/robotino_ws/src/geometry2/tf2/include/tf2/transform_datatypes.h:44:7:[m[K [01;36m[Knote: [m[Kprovided for ‘[01m[Ktemplate<class T> class tf2::Stamped[m[K’
 class Stamped : public T{
[01;32m[K       ^[m[K
In file included from [01m[K/home/robotino/robotino_ws/src/geometry2/tf2/include/tf2/impl/utils.h:18:0[m[K,
                 from [01m[K/home/robotino/robotino_ws/src/geometry2/tf2/include/tf2/utils.h:20[m[K,
                 from [01m[K/home/robotino/robotino_ws/src/navigation/costmap_2d/src/costmap_2d_ros.cpp:45[m[K:
[01m[K/home/robotino/robotino_ws/src/geometry2/tf2_geometry_msgs/include/tf2_geometry_msgs/tf2_geometry_msgs.h:1009:55:[m[K [01;31m[Kerror: [m[K‘[01m[Karray[m[K’ is not a member of ‘[01m[Kstd[m[K’
 geometry_msgs::WrenchStamped toMsg(const tf2::Stamped<std::array<tf2::Vector3, 2>>& in, geometry_msgs::WrenchStamped & out)
[01;32m[K                                                       ^[m[K
[01m[K/home/robotino/robotino_ws/src/geometry2/tf2_geometry_msgs/include/tf2_geometry_msgs/tf2_geometry_msgs.h:1009:55:[m[K [01;36m[Knote: [m[Ksuggested alternative:
In file included from [01m[K/opt/ros/kinetic/include/ros/serialization.h:45:0[m[K,
                 from [01m[K/opt/ros/kinetic/include/geometry_msgs/Point.h:14[m[K,
                 from [01m[K/home/robotino/robotino_ws/src/navigation/costmap_2d/include/costmap_2d/costmap_2d.h:43[m[K,
                 from [01m[K/home/robotino/robotino_ws/src/navigation/costmap_2d/include/costmap_2d/layer.h:40[m[K,
                 from [01m[K/home/robotino/robotino_ws/src/navigation/costmap_2d/include/costmap_2d/layered_costmap.h:42[m[K,
                 from [01m[K/home/robotino/robotino_ws/src/navigation/costmap_2d/src/costmap_2d_ros.cpp:38[m[K:
[01m[K/usr/include/boost/array.hpp:60:11:[m[K [01;36m[Knote: [m[K  ‘[01m[Kboost::array[m[K’
     class array {
[01;32m[K           ^[m[K
In file included from [01m[K/home/robotino/robotino_ws/src/geometry2/tf2/include/tf2/impl/utils.h:18:0[m[K,
                 from [01m[K/home/robotino/robotino_ws/src/geometry2/tf2/include/tf2/utils.h:20[m[K,
                 from [01m[K/home/robotino/robotino_ws/src/navigation/costmap_2d/src/costmap_2d_ros.cpp:45[m[K:
[01m[K/home/robotino/robotino_ws/src/geometry2/tf2_geometry_msgs/include/tf2_geometry_msgs/tf2_geometry_msgs.h:1009:55:[m[K [01;31m[Kerror: [m[K‘[01m[Karray[m[K’ is not a member of ‘[01m[Kstd[m[K’
 geometry_msgs::WrenchStamped toMsg(const tf2::Stamped<std::array<tf2::Vector3, 2>>& in, geometry_msgs::WrenchStamped & out)
[01;32m[K                                                       ^[m[K
[01m[K/home/robotino/robotino_ws/src/geometry2/tf2_geometry_msgs/include/tf2_geometry_msgs/tf2_geometry_msgs.h:1009:55:[m[K [01;36m[Knote: [m[Ksuggested alternative:
In file included from [01m[K/opt/ros/kinetic/include/ros/serialization.h:45:0[m[K,
                 from [01m[K/opt/ros/kinetic/include/geometry_msgs/Point.h:14[m[K,
                 from [01m[K/home/robotino/robotino_ws/src/navigation/costmap_2d/include/costmap_2d/costmap_2d.h:43[m[K,
                 from [01m[K/home/robotino/robotino_ws/src/navigation/costmap_2d/include/costmap_2d/layer.h:40[m[K,
                 from [01m[K/home/robotino/robotino_ws/src/navigation/costmap_2d/include/costmap_2d/layered_costmap.h:42[m[K,
                 from [01m[K/home/robotino/robotino_ws/src/navigation/costmap_2d/src/costmap_2d_ros.cpp:38[m[K:
[01m[K/usr/include/boost/array.hpp:60:11:[m[K [01;36m[Knote: [m[K  ‘[01m[Kboost::array[m[K’
     class array {
[01;32m[K           ^[m[K
In file included from [01m[K/home/robotino/robotino_ws/src/geometry2/tf2/include/tf2/impl/utils.h:18:0[m[K,
                 from [01m[K/home/robotino/robotino_ws/src/geometry2/tf2/include/tf2/utils.h:20[m[K,
                 from [01m[K/home/robotino/robotino_ws/src/navigation/costmap_2d/src/costmap_2d_ros.cpp:45[m[K:
[01m[K/home/robotino/robotino_ws/src/geometry2/tf2_geometry_msgs/include/tf2_geometry_msgs/tf2_geometry_msgs.h:1009:81:[m[K [01;31m[Kerror: [m[Kspurious ‘[01m[K>>[m[K’, use ‘[01m[K>[m[K’ to terminate a template argument list
 geometry_msgs::WrenchStamped toMsg(const tf2::Stamped<std::array<tf2::Vector3, 2>>& in, geometry_msgs::WrenchStamped & out)
[01;32m[K                                                                                 ^[m[K
[01m[K/home/robotino/robotino_ws/src/geometry2/tf2_geometry_msgs/include/tf2_geometry_msgs/tf2_geometry_msgs.h:1009:81:[m[K [01;31m[Kerror: [m[Kwrong number of template arguments (2, should be 1)
In file included from [01m[K/home/robotino/robotino_ws/src/geometry2/tf2_ros/include/tf2_ros/buffer_interface.h:36:0[m[K,
                 from [01m[K/home/robotino/robotino_ws/src/geometry2/tf2_ros/include/tf2_ros/buffer.h:35[m[K,
                 from [01m[K/home/robotino/robotino_ws/src/navigation/costmap_2d/include/costmap_2d/layer.h:43[m[K,
                 from [01m[K/home/robotino/robotino_ws/src/navigation/costmap_2d/include/costmap_2d/layered_costmap.h:42[m[K,
                 from [01m[K/home/robotino/robotino_ws/src/navigation/costmap_2d/src/costmap_2d_ros.cpp:38[m[K:
[01m[K/home/robotino/robotino_ws/src/geometry2/tf2/include/tf2/transform_datatypes.h:44:7:[m[K [01;36m[Knote: [m[Kprovided for ‘[01m[Ktemplate<class T> class tf2::Stamped[m[K’
 class Stamped : public T{
[01;32m[K       ^[m[K
In file included from [01m[K/home/robotino/robotino_ws/src/geometry2/tf2/include/tf2/impl/utils.h:18:0[m[K,
                 from [01m[K/home/robotino/robotino_ws/src/geometry2/tf2/include/tf2/utils.h:20[m[K,
                 from [01m[K/home/robotino/robotino_ws/src/navigation/costmap_2d/src/costmap_2d_ros.cpp:45[m[K:
[01m[K/home/robotino/robotino_ws/src/geometry2/tf2_geometry_msgs/include/tf2_geometry_msgs/tf2_geometry_msgs.h:1009:55:[m[K [01;31m[Kerror: [m[K‘[01m[Karray[m[K’ is not a member of ‘[01m[Kstd[m[K’
 geometry_msgs::WrenchStamped toMsg(const tf2::Stamped<std::array<tf2::Vector3, 2>>& in, geometry_msgs::WrenchStamped & out)
[01;32m[K                                                       ^[m[K
[01m[K/home/robotino/robotino_ws/src/geometry2/tf2_geometry_msgs/include/tf2_geometry_msgs/tf2_geometry_msgs.h:1009:55:[m[K [01;36m[Knote: [m[Ksuggested alternative:
In file included from [01m[K/opt/ros/kinetic/include/ros/serialization.h:45:0[m[K,
                 from [01m[K/opt/ros/kinetic/include/geometry_msgs/Point.h:14[m[K,
                 from [01m[K/home/robotino/robotino_ws/src/navigation/costmap_2d/include/costmap_2d/costmap_2d.h:43[m[K,
                 from [01m[K/home/robotino/robotino_ws/src/navigation/costmap_2d/include/costmap_2d/layer.h:40[m[K,
                 from [01m[K/home/robotino/robotino_ws/src/navigation/costmap_2d/include/costmap_2d/layered_costmap.h:42[m[K,
                 from [01m[K/home/robotino/robotino_ws/src/navigation/costmap_2d/src/costmap_2d_ros.cpp:38[m[K:
[01m[K/usr/include/boost/array.hpp:60:11:[m[K [01;36m[Knote: [m[K  ‘[01m[Kboost::array[m[K’
     class array {
[01;32m[K           ^[m[K
In file included from [01m[K/home/robotino/robotino_ws/src/geometry2/tf2/include/tf2/impl/utils.h:18:0[m[K,
                 from [01m[K/home/robotino/robotino_ws/src/geometry2/tf2/include/tf2/utils.h:20[m[K,
                 from [01m[K/home/robotino/robotino_ws/src/navigation/costmap_2d/src/costmap_2d_ros.cpp:45[m[K:
[01m[K/home/robotino/robotino_ws/src/geometry2/tf2_geometry_msgs/include/tf2_geometry_msgs/tf2_geometry_msgs.h:1009:55:[m[K [01;31m[Kerror: [m[K‘[01m[Karray[m[K’ is not a member of ‘[01m[Kstd[m[K’
 geometry_msgs::WrenchStamped toMsg(const tf2::Stamped<std::array<tf2::Vector3, 2>>& in, geometry_msgs::WrenchStamped & out)
[01;32m[K                                                       ^[m[K
[01m[K/home/robotino/robotino_ws/src/geometry2/tf2_geometry_msgs/include/tf2_geometry_msgs/tf2_geometry_msgs.h:1009:55:[m[K [01;36m[Knote: [m[Ksuggested alternative:
In file included from [01m[K/opt/ros/kinetic/include/ros/serialization.h:45:0[m[K,
                 from [01m[K/opt/ros/kinetic/include/geometry_msgs/Point.h:14[m[K,
                 from [01m[K/home/robotino/robotino_ws/src/navigation/costmap_2d/include/costmap_2d/costmap_2d.h:43[m[K,
                 from [01m[K/home/robotino/robotino_ws/src/navigation/costmap_2d/include/costmap_2d/layer.h:40[m[K,
                 from [01m[K/home/robotino/robotino_ws/src/navigation/costmap_2d/include/costmap_2d/layered_costmap.h:42[m[K,
                 from [01m[K/home/robotino/robotino_ws/src/navigation/costmap_2d/src/costmap_2d_ros.cpp:38[m[K:
[01m[K/usr/include/boost/array.hpp:60:11:[m[K [01;36m[Knote: [m[K  ‘[01m[Kboost::array[m[K’
     class array {
[01;32m[K           ^[m[K
In file included from [01m[K/home/robotino/robotino_ws/src/geometry2/tf2/include/tf2/impl/utils.h:18:0[m[K,
                 from [01m[K/home/robotino/robotino_ws/src/geometry2/tf2/include/tf2/utils.h:20[m[K,
                 from [01m[K/home/robotino/robotino_ws/src/navigation/costmap_2d/src/costmap_2d_ros.cpp:45[m[K:
[01m[K/home/robotino/robotino_ws/src/geometry2/tf2_geometry_msgs/include/tf2_geometry_msgs/tf2_geometry_msgs.h:1009:81:[m[K [01;31m[Kerror: [m[Kspurious ‘[01m[K>>[m[K’, use ‘[01m[K>[m[K’ to terminate a template argument list
 geometry_msgs::WrenchStamped toMsg(const tf2::Stamped<std::array<tf2::Vector3, 2>>& in, geometry_msgs::WrenchStamped & out)
[01;32m[K                                                                                 ^[m[K
[01m[K/home/robotino/robotino_ws/src/geometry2/tf2_geometry_msgs/include/tf2_geometry_msgs/tf2_geometry_msgs.h:1009:81:[m[K [01;31m[Kerror: [m[Kwrong number of template arguments (2, should be 1)
In file included from [01m[K/home/robotino/robotino_ws/src/geometry2/tf2_ros/include/tf2_ros/buffer_interface.h:36:0[m[K,
                 from [01m[K/home/robotino/robotino_ws/src/geometry2/tf2_ros/include/tf2_ros/buffer.h:35[m[K,
                 from [01m[K/home/robotino/robotino_ws/src/navigation/costmap_2d/include/costmap_2d/layer.h:43[m[K,
                 from [01m[K/home/robotino/robotino_ws/src/navigation/costmap_2d/include/costmap_2d/layered_costmap.h:42[m[K,
                 from [01m[K/home/robotino/robotino_ws/src/navigation/costmap_2d/src/costmap_2d_ros.cpp:38[m[K:
[01m[K/home/robotino/robotino_ws/src/geometry2/tf2/include/tf2/transform_datatypes.h:44:7:[m[K [01;36m[Knote: [m[Kprovided for ‘[01m[Ktemplate<class T> class tf2::Stamped[m[K’
 class Stamped : public T{
[01;32m[K       ^[m[K
In file included from [01m[K/home/robotino/robotino_ws/src/geometry2/tf2/include/tf2/impl/utils.h:18:0[m[K,
                 from [01m[K/home/robotino/robotino_ws/src/geometry2/tf2/include/tf2/utils.h:20[m[K,
                 from [01m[K/home/robotino/robotino_ws/src/navigation/costmap_2d/src/costmap_2d_ros.cpp:45[m[K:
[01m[K/home/robotino/robotino_ws/src/geometry2/tf2_geometry_msgs/include/tf2_geometry_msgs/tf2_geometry_msgs.h:1009:55:[m[K [01;31m[Kerror: [m[K‘[01m[Karray[m[K’ is not a member of ‘[01m[Kstd[m[K’
 geometry_msgs::WrenchStamped toMsg(const tf2::Stamped<std::array<tf2::Vector3, 2>>& in, geometry_msgs::WrenchStamped & out)
[01;32m[K                                                       ^[m[K
[01m[K/home/robotino/robotino_ws/src/geometry2/tf2_geometry_msgs/include/tf2_geometry_msgs/tf2_geometry_msgs.h:1009:55:[m[K [01;36m[Knote: [m[Ksuggested alternative:
In file included from [01m[K/opt/ros/kinetic/include/ros/serialization.h:45:0[m[K,
                 from [01m[K/opt/ros/kinetic/include/geometry_msgs/Point.h:14[m[K,
                 from [01m[K/home/robotino/robotino_ws/src/navigation/costmap_2d/include/costmap_2d/costmap_2d.h:43[m[K,
                 from [01m[K/home/robotino/robotino_ws/src/navigation/costmap_2d/include/costmap_2d/layer.h:40[m[K,
                 from [01m[K/home/robotino/robotino_ws/src/navigation/costmap_2d/include/costmap_2d/layered_costmap.h:42[m[K,
                 from [01m[K/home/robotino/robotino_ws/src/navigation/costmap_2d/src/costmap_2d_ros.cpp:38[m[K:
[01m[K/usr/include/boost/array.hpp:60:11:[m[K [01;36m[Knote: [m[K  ‘[01m[Kboost::array[m[K’
     class array {
[01;32m[K           ^[m[K
In file included from [01m[K/home/robotino/robotino_ws/src/geometry2/tf2/include/tf2/impl/utils.h:18:0[m[K,
                 from [01m[K/home/robotino/robotino_ws/src/geometry2/tf2/include/tf2/utils.h:20[m[K,
                 from [01m[K/home/robotino/robotino_ws/src/navigation/costmap_2d/src/costmap_2d_ros.cpp:45[m[K:
[01m[K/home/robotino/robotino_ws/src/geometry2/tf2_geometry_msgs/include/tf2_geometry_msgs/tf2_geometry_msgs.h:1009:55:[m[K [01;31m[Kerror: [m[K‘[01m[Karray[m[K’ is not a member of ‘[01m[Kstd[m[K’
 geometry_msgs::WrenchStamped toMsg(const tf2::Stamped<std::array<tf2::Vector3, 2>>& in, geometry_msgs::WrenchStamped & out)
[01;32m[K                                                       ^[m[K
[01m[K/home/robotino/robotino_ws/src/geometry2/tf2_geometry_msgs/include/tf2_geometry_msgs/tf2_geometry_msgs.h:1009:55:[m[K [01;36m[Knote: [m[Ksuggested alternative:
In file included from [01m[K/opt/ros/kinetic/include/ros/serialization.h:45:0[m[K,
                 from [01m[K/opt/ros/kinetic/include/geometry_msgs/Point.h:14[m[K,
                 from [01m[K/home/robotino/robotino_ws/src/navigation/costmap_2d/include/costmap_2d/costmap_2d.h:43[m[K,
                 from [01m[K/home/robotino/robotino_ws/src/navigation/costmap_2d/include/costmap_2d/layer.h:40[m[K,
                 from [01m[K/home/robotino/robotino_ws/src/navigation/costmap_2d/include/costmap_2d/layered_costmap.h:42[m[K,
                 from [01m[K/home/robotino/robotino_ws/src/navigation/costmap_2d/src/costmap_2d_ros.cpp:38[m[K:
[01m[K/usr/include/boost/array.hpp:60:11:[m[K [01;36m[Knote: [m[K  ‘[01m[Kboost::array[m[K’
     class array {
[01;32m[K           ^[m[K
In file included from [01m[K/home/robotino/robotino_ws/src/geometry2/tf2/include/tf2/impl/utils.h:18:0[m[K,
                 from [01m[K/home/robotino/robotino_ws/src/geometry2/tf2/include/tf2/utils.h:20[m[K,
                 from [01m[K/home/robotino/robotino_ws/src/navigation/costmap_2d/src/costmap_2d_ros.cpp:45[m[K:
[01m[K/home/robotino/robotino_ws/src/geometry2/tf2_geometry_msgs/include/tf2_geometry_msgs/tf2_geometry_msgs.h:1009:81:[m[K [01;31m[Kerror: [m[Kspurious ‘[01m[K>>[m[K’, use ‘[01m[K>[m[K’ to terminate a template argument list
 geometry_msgs::WrenchStamped toMsg(const tf2::Stamped<std::array<tf2::Vector3, 2>>& in, geometry_msgs::WrenchStamped & out)
[01;32m[K                                                                                 ^[m[K
[01m[K/home/robotino/robotino_ws/src/geometry2/tf2_geometry_msgs/include/tf2_geometry_msgs/tf2_geometry_msgs.h:1009:81:[m[K [01;31m[Kerror: [m[Kwrong number of template arguments (2, should be 1)
In file included from [01m[K/home/robotino/robotino_ws/src/geometry2/tf2_ros/include/tf2_ros/buffer_interface.h:36:0[m[K,
                 from [01m[K/home/robotino/robotino_ws/src/geometry2/tf2_ros/include/tf2_ros/buffer.h:35[m[K,
                 from [01m[K/home/robotino/robotino_ws/src/navigation/costmap_2d/include/costmap_2d/layer.h:43[m[K,
                 from [01m[K/home/robotino/robotino_ws/src/navigation/costmap_2d/include/costmap_2d/layered_costmap.h:42[m[K,
                 from [01m[K/home/robotino/robotino_ws/src/navigation/costmap_2d/src/costmap_2d_ros.cpp:38[m[K:
[01m[K/home/robotino/robotino_ws/src/geometry2/tf2/include/tf2/transform_datatypes.h:44:7:[m[K [01;36m[Knote: [m[Kprovided for ‘[01m[Ktemplate<class T> class tf2::Stamped[m[K’
 class Stamped : public T{
[01;32m[K       ^[m[K
In file included from [01m[K/home/robotino/robotino_ws/src/geometry2/tf2/include/tf2/impl/utils.h:18:0[m[K,
                 from [01m[K/home/robotino/robotino_ws/src/geometry2/tf2/include/tf2/utils.h:20[m[K,
                 from [01m[K/home/robotino/robotino_ws/src/navigation/costmap_2d/src/costmap_2d_ros.cpp:45[m[K:
[01m[K/home/robotino/robotino_ws/src/geometry2/tf2_geometry_msgs/include/tf2_geometry_msgs/tf2_geometry_msgs.h:1009:42:[m[K [01;31m[Kerror: [m[Kinvalid use of template-name ‘[01m[Ktf2::Stamped[m[K’ without an argument list
 geometry_msgs::WrenchStamped toMsg(const tf2::Stamped<std::array<tf2::Vector3, 2>>& in, geometry_msgs::WrenchStamped & out)
[01;32m[K                                          ^[m[K
[01m[K/home/robotino/robotino_ws/src/geometry2/tf2_geometry_msgs/include/tf2_geometry_msgs/tf2_geometry_msgs.h:1009:54:[m[K [01;31m[Kerror: [m[Kexpected ‘[01m[K,[m[K’ or ‘[01m[K...[m[K’ before ‘[01m[K<[m[K’ token
 geometry_msgs::WrenchStamped toMsg(const tf2::Stamped<std::array<tf2::Vector3, 2>>& in, geometry_msgs::WrenchStamped & out)
[01;32m[K                                                      ^[m[K
[01m[K/home/robotino/robotino_ws/src/geometry2/tf2_geometry_msgs/include/tf2_geometry_msgs/tf2_geometry_msgs.h:[m[K In function ‘[01m[Kgeometry_msgs::WrenchStamped tf2::toMsg(int)[m[K’:
[01m[K/home/robotino/robotino_ws/src/geometry2/tf2_geometry_msgs/include/tf2_geometry_msgs/tf2_geometry_msgs.h:1011:3:[m[K [01;31m[Kerror: [m[K‘[01m[Kout[m[K’ was not declared in this scope
   out.header.stamp = in.stamp_;
[01;32m[K   ^[m[K
[01m[K/home/robotino/robotino_ws/src/geometry2/tf2_geometry_msgs/include/tf2_geometry_msgs/tf2_geometry_msgs.h:1011:22:[m[K [01;31m[Kerror: [m[K‘[01m[Kin[m[K’ was not declared in this scope
   out.header.stamp = in.stamp_;
[01;32m[K                      ^[m[K
[01m[K/home/robotino/robotino_ws/src/geometry2/tf2_geometry_msgs/include/tf2_geometry_msgs/tf2_geometry_msgs.h:[m[K At global scope:
[01m[K/home/robotino/robotino_ws/src/geometry2/tf2_geometry_msgs/include/tf2_geometry_msgs/tf2_geometry_msgs.h:1020:68:[m[K [01;31m[Kerror: [m[K‘[01m[Karray[m[K’ is not a member of ‘[01m[Kstd[m[K’
 void fromMsg(const geometry_msgs::WrenchStamped& msg, tf2::Stamped<std::array<tf2::Vector3, 2>>& out)
[01;32m[K                                                                    ^[m[K
[01m[K/home/robotino/robotino_ws/src/geometry2/tf2_geometry_msgs/include/tf2_geometry_msgs/tf2_geometry_msgs.h:1020:68:[m[K [01;36m[Knote: [m[Ksuggested alternative:
In file included from [01m[K/opt/ros/kinetic/include/ros/serialization.h:45:0[m[K,
                 from [01m[K/opt/ros/kinetic/include/geometry_msgs/Point.h:14[m[K,
                 from [01m[K/home/robotino/robotino_ws/src/navigation/costmap_2d/include/costmap_2d/costmap_2d.h:43[m[K,
                 from [01m[K/home/robotino/robotino_ws/src/navigation/costmap_2d/include/costmap_2d/layer.h:40[m[K,
                 from [01m[K/home/robotino/robotino_ws/src/navigation/costmap_2d/include/costmap_2d/layered_costmap.h:42[m[K,
                 from [01m[K/home/robotino/robotino_ws/src/navigation/costmap_2d/src/costmap_2d_ros.cpp:38[m[K:
[01m[K/usr/include/boost/array.hpp:60:11:[m[K [01;36m[Knote: [m[K  ‘[01m[Kboost::array[m[K’
     class array {
[01;32m[K           ^[m[K
In file included from [01m[K/home/robotino/robotino_ws/src/geometry2/tf2/include/tf2/impl/utils.h:18:0[m[K,
                 from [01m[K/home/robotino/robotino_ws/src/geometry2/tf2/include/tf2/utils.h:20[m[K,
                 from [01m[K/home/robotino/robotino_ws/src/navigation/costmap_2d/src/costmap_2d_ros.cpp:45[m[K:
[01m[K/home/robotino/robotino_ws/src/geometry2/tf2_geometry_msgs/include/tf2_geometry_msgs/tf2_geometry_msgs.h:1020:68:[m[K [01;31m[Kerror: [m[K‘[01m[Karray[m[K’ is not a member of ‘[01m[Kstd[m[K’
 void fromMsg(const geometry_msgs::WrenchStamped& msg, tf2::Stamped<std::array<tf2::Vector3, 2>>& out)
[01;32m[K                                                                    ^[m[K
[01m[K/home/robotino/robotino_ws/src/geometry2/tf2_geometry_msgs/include/tf2_geometry_msgs/tf2_geometry_msgs.h:1020:68:[m[K [01;36m[Knote: [m[Ksuggested alternative:
In file included from [01m[K/opt/ros/kinetic/include/ros/serialization.h:45:0[m[K,
                 from [01m[K/opt/ros/kinetic/include/geometry_msgs/Point.h:14[m[K,
                 from [01m[K/home/robotino/robotino_ws/src/navigation/costmap_2d/include/costmap_2d/costmap_2d.h:43[m[K,
                 from [01m[K/home/robotino/robotino_ws/src/navigation/costmap_2d/include/costmap_2d/layer.h:40[m[K,
                 from [01m[K/home/robotino/robotino_ws/src/navigation/costmap_2d/include/costmap_2d/layered_costmap.h:42[m[K,
                 from [01m[K/home/robotino/robotino_ws/src/navigation/costmap_2d/src/costmap_2d_ros.cpp:38[m[K:
[01m[K/usr/include/boost/array.hpp:60:11:[m[K [01;36m[Knote: [m[K  ‘[01m[Kboost::array[m[K’
     class array {
[01;32m[K           ^[m[K
In file included from [01m[K/home/robotino/robotino_ws/src/geometry2/tf2/include/tf2/impl/utils.h:18:0[m[K,
                 from [01m[K/home/robotino/robotino_ws/src/geometry2/tf2/include/tf2/utils.h:20[m[K,
                 from [01m[K/home/robotino/robotino_ws/src/navigation/costmap_2d/src/costmap_2d_ros.cpp:45[m[K:
[01m[K/home/robotino/robotino_ws/src/geometry2/tf2_geometry_msgs/include/tf2_geometry_msgs/tf2_geometry_msgs.h:1020:94:[m[K [01;31m[Kerror: [m[Kspurious ‘[01m[K>>[m[K’, use ‘[01m[K>[m[K’ to terminate a template argument list
 void fromMsg(const geometry_msgs::WrenchStamped& msg, tf2::Stamped<std::array<tf2::Vector3, 2>>& out)
[01;32m[K                                                                                              ^[m[K
[01m[K/home/robotino/robotino_ws/src/geometry2/tf2_geometry_msgs/include/tf2_geometry_msgs/tf2_geometry_msgs.h:1020:94:[m[K [01;31m[Kerror: [m[Kwrong number of template arguments (2, should be 1)
In file included from [01m[K/home/robotino/robotino_ws/src/geometry2/tf2_ros/include/tf2_ros/buffer_interface.h:36:0[m[K,
                 from [01m[K/home/robotino/robotino_ws/src/geometry2/tf2_ros/include/tf2_ros/buffer.h:35[m[K,
                 from [01m[K/home/robotino/robotino_ws/src/navigation/costmap_2d/include/costmap_2d/layer.h:43[m[K,
                 from [01m[K/home/robotino/robotino_ws/src/navigation/costmap_2d/include/costmap_2d/layered_costmap.h:42[m[K,
                 from [01m[K/home/robotino/robotino_ws/src/navigation/costmap_2d/src/costmap_2d_ros.cpp:38[m[K:
[01m[K/home/robotino/robotino_ws/src/geometry2/tf2/include/tf2/transform_datatypes.h:44:7:[m[K [01;36m[Knote: [m[Kprovided for ‘[01m[Ktemplate<class T> class tf2::Stamped[m[K’
 class Stamped : public T{
[01;32m[K       ^[m[K
In file included from [01m[K/home/robotino/robotino_ws/src/geometry2/tf2/include/tf2/impl/utils.h:18:0[m[K,
                 from [01m[K/home/robotino/robotino_ws/src/geometry2/tf2/include/tf2/utils.h:20[m[K,
                 from [01m[K/home/robotino/robotino_ws/src/navigation/costmap_2d/src/costmap_2d_ros.cpp:45[m[K:
[01m[K/home/robotino/robotino_ws/src/geometry2/tf2_geometry_msgs/include/tf2_geometry_msgs/tf2_geometry_msgs.h:1020:68:[m[K [01;31m[Kerror: [m[K‘[01m[Karray[m[K’ is not a member of ‘[01m[Kstd[m[K’
 void fromMsg(const geometry_msgs::WrenchStamped& msg, tf2::Stamped<std::array<tf2::Vector3, 2>>& out)
[01;32m[K                                                                    ^[m[K
[01m[K/home/robotino/robotino_ws/src/geometry2/tf2_geometry_msgs/include/tf2_geometry_msgs/tf2_geometry_msgs.h:1020:68:[m[K [01;36m[Knote: [m[Ksuggested alternative:
In file included from [01m[K/opt/ros/kinetic/include/ros/serialization.h:45:0[m[K,
                 from [01m[K/opt/ros/kinetic/include/geometry_msgs/Point.h:14[m[K,
                 from [01m[K/home/robotino/robotino_ws/src/navigation/costmap_2d/include/costmap_2d/costmap_2d.h:43[m[K,
                 from [01m[K/home/robotino/robotino_ws/src/navigation/costmap_2d/include/costmap_2d/layer.h:40[m[K,
                 from [01m[K/home/robotino/robotino_ws/src/navigation/costmap_2d/include/costmap_2d/layered_costmap.h:42[m[K,
                 from [01m[K/home/robotino/robotino_ws/src/navigation/costmap_2d/src/costmap_2d_ros.cpp:38[m[K:
[01m[K/usr/include/boost/array.hpp:60:11:[m[K [01;36m[Knote: [m[K  ‘[01m[Kboost::array[m[K’
     class array {
[01;32m[K           ^[m[K
In file included from [01m[K/home/robotino/robotino_ws/src/geometry2/tf2/include/tf2/impl/utils.h:18:0[m[K,
                 from [01m[K/home/robotino/robotino_ws/src/geometry2/tf2/include/tf2/utils.h:20[m[K,
                 from [01m[K/home/robotino/robotino_ws/src/navigation/costmap_2d/src/costmap_2d_ros.cpp:45[m[K:
[01m[K/home/robotino/robotino_ws/src/geometry2/tf2_geometry_msgs/include/tf2_geometry_msgs/tf2_geometry_msgs.h:1020:68:[m[K [01;31m[Kerror: [m[K‘[01m[Karray[m[K’ is not a member of ‘[01m[Kstd[m[K’
 void fromMsg(const geometry_msgs::WrenchStamped& msg, tf2::Stamped<std::array<tf2::Vector3, 2>>& out)
[01;32m[K                                                                    ^[m[K
[01m[K/home/robotino/robotino_ws/src/geometry2/tf2_geometry_msgs/include/tf2_geometry_msgs/tf2_geometry_msgs.h:1020:68:[m[K [01;36m[Knote: [m[Ksuggested alternative:
In file included from [01m[K/opt/ros/kinetic/include/ros/serialization.h:45:0[m[K,
                 from [01m[K/opt/ros/kinetic/include/geometry_msgs/Point.h:14[m[K,
                 from [01m[K/home/robotino/robotino_ws/src/navigation/costmap_2d/include/costmap_2d/costmap_2d.h:43[m[K,
                 from [01m[K/home/robotino/robotino_ws/src/navigation/costmap_2d/include/costmap_2d/layer.h:40[m[K,
                 from [01m[K/home/robotino/robotino_ws/src/navigation/costmap_2d/include/costmap_2d/layered_costmap.h:42[m[K,
                 from [01m[K/home/robotino/robotino_ws/src/navigation/costmap_2d/src/costmap_2d_ros.cpp:38[m[K:
[01m[K/usr/include/boost/array.hpp:60:11:[m[K [01;36m[Knote: [m[K  ‘[01m[Kboost::array[m[K’
     class array {
[01;32m[K           ^[m[K
In file included from [01m[K/home/robotino/robotino_ws/src/geometry2/tf2/include/tf2/impl/utils.h:18:0[m[K,
                 from [01m[K/home/robotino/robotino_ws/src/geometry2/tf2/include/tf2/utils.h:20[m[K,
                 from [01m[K/home/robotino/robotino_ws/src/navigation/costmap_2d/src/costmap_2d_ros.cpp:45[m[K:
[01m[K/home/robotino/robotino_ws/src/geometry2/tf2_geometry_msgs/include/tf2_geometry_msgs/tf2_geometry_msgs.h:1020:94:[m[K [01;31m[Kerror: [m[Kspurious ‘[01m[K>>[m[K’, use ‘[01m[K>[m[K’ to terminate a template argument list
 void fromMsg(const geometry_msgs::WrenchStamped& msg, tf2::Stamped<std::array<tf2::Vector3, 2>>& out)
[01;32m[K                                                                                              ^[m[K
[01m[K/home/robotino/robotino_ws/src/geometry2/tf2_geometry_msgs/include/tf2_geometry_msgs/tf2_geometry_msgs.h:1020:94:[m[K [01;31m[Kerror: [m[Kwrong number of template arguments (2, should be 1)
In file included from [01m[K/home/robotino/robotino_ws/src/geometry2/tf2_ros/include/tf2_ros/buffer_interface.h:36:0[m[K,
                 from [01m[K/home/robotino/robotino_ws/src/geometry2/tf2_ros/include/tf2_ros/buffer.h:35[m[K,
                 from [01m[K/home/robotino/robotino_ws/src/navigation/costmap_2d/include/costmap_2d/layer.h:43[m[K,
                 from [01m[K/home/robotino/robotino_ws/src/navigation/costmap_2d/include/costmap_2d/layered_costmap.h:42[m[K,
                 from [01m[K/home/robotino/robotino_ws/src/navigation/costmap_2d/src/costmap_2d_ros.cpp:38[m[K:
[01m[K/home/robotino/robotino_ws/src/geometry2/tf2/include/tf2/transform_datatypes.h:44:7:[m[K [01;36m[Knote: [m[Kprovided for ‘[01m[Ktemplate<class T> class tf2::Stamped[m[K’
 class Stamped : public T{
[01;32m[K       ^[m[K
In file included from [01m[K/home/robotino/robotino_ws/src/geometry2/tf2/include/tf2/impl/utils.h:18:0[m[K,
                 from [01m[K/home/robotino/robotino_ws/src/geometry2/tf2/include/tf2/utils.h:20[m[K,
                 from [01m[K/home/robotino/robotino_ws/src/navigation/costmap_2d/src/costmap_2d_ros.cpp:45[m[K:
[01m[K/home/robotino/robotino_ws/src/geometry2/tf2_geometry_msgs/include/tf2_geometry_msgs/tf2_geometry_msgs.h:1020:60:[m[K [01;31m[Kerror: [m[K‘[01m[Ktf2::Stamped[m[K’ is not a type
 void fromMsg(const geometry_msgs::WrenchStamped& msg, tf2::Stamped<std::array<tf2::Vector3, 2>>& out)
[01;32m[K                                                            ^[m[K
[01m[K/home/robotino/robotino_ws/src/geometry2/tf2_geometry_msgs/include/tf2_geometry_msgs/tf2_geometry_msgs.h:1020:67:[m[K [01;31m[Kerror: [m[Kexpected ‘[01m[K,[m[K’ or ‘[01m[K...[m[K’ before ‘[01m[K<[m[K’ token
 void fromMsg(const geometry_msgs::WrenchStamped& msg, tf2::Stamped<std::array<tf2::Vector3, 2>>& out)
[01;32m[K                                                                   ^[m[K
[01m[K/home/robotino/robotino_ws/src/geometry2/tf2_geometry_msgs/include/tf2_geometry_msgs/tf2_geometry_msgs.h:[m[K In function ‘[01m[Kvoid tf2::fromMsg(const WrenchStamped&, int)[m[K’:
[01m[K/home/robotino/robotino_ws/src/geometry2/tf2_geometry_msgs/include/tf2_geometry_msgs/tf2_geometry_msgs.h:1022:3:[m[K [01;31m[Kerror: [m[K‘[01m[Kout[m[K’ was not declared in this scope
   out.stamp_ = msg.header.stamp;
[01;32m[K   ^[m[K
[01m[K/home/robotino/robotino_ws/src/geometry2/tf2_geometry_msgs/include/tf2_geometry_msgs/tf2_geometry_msgs.h:1028:3:[m[K [01;31m[Kerror: [m[K‘[01m[Karray[m[K’ is not a member of ‘[01m[Kstd[m[K’
   std::array<tf2::Vector3, 2> tmp_array;
[01;32m[K   ^[m[K
[01m[K/home/robotino/robotino_ws/src/geometry2/tf2_geometry_msgs/include/tf2_geometry_msgs/tf2_geometry_msgs.h:1028:3:[m[K [01;36m[Knote: [m[Ksuggested alternative:
In file included from [01m[K/opt/ros/kinetic/include/ros/serialization.h:45:0[m[K,
                 from [01m[K/opt/ros/kinetic/include/geometry_msgs/Point.h:14[m[K,
                 from [01m[K/home/robotino/robotino_ws/src/navigation/costmap_2d/include/costmap_2d/costmap_2d.h:43[m[K,
                 from [01m[K/home/robotino/robotino_ws/src/navigation/costmap_2d/include/costmap_2d/layer.h:40[m[K,
                 from [01m[K/home/robotino/robotino_ws/src/navigation/costmap_2d/include/costmap_2d/layered_costmap.h:42[m[K,
                 from [01m[K/home/robotino/robotino_ws/src/navigation/costmap_2d/src/costmap_2d_ros.cpp:38[m[K:
[01m[K/usr/include/boost/array.hpp:60:11:[m[K [01;36m[Knote: [m[K  ‘[01m[Kboost::array[m[K’
     class array {
[01;32m[K           ^[m[K
In file included from [01m[K/home/robotino/robotino_ws/src/geometry2/tf2/include/tf2/impl/utils.h:18:0[m[K,
                 from [01m[K/home/robotino/robotino_ws/src/geometry2/tf2/include/tf2/utils.h:20[m[K,
                 from [01m[K/home/robotino/robotino_ws/src/navigation/costmap_2d/src/costmap_2d_ros.cpp:45[m[K:
[01m[K/home/robotino/robotino_ws/src/geometry2/tf2_geometry_msgs/include/tf2_geometry_msgs/tf2_geometry_msgs.h:1028:26:[m[K [01;31m[Kerror: [m[Kexpected primary-expression before ‘[01m[K,[m[K’ token
   std::array<tf2::Vector3, 2> tmp_array;
[01;32m[K                          ^[m[K
[01m[K/home/robotino/robotino_ws/src/geometry2/tf2_geometry_msgs/include/tf2_geometry_msgs/tf2_geometry_msgs.h:1028:31:[m[K [01;31m[Kerror: [m[K‘[01m[Ktmp_array[m[K’ was not declared in this scope
   std::array<tf2::Vector3, 2> tmp_array;
[01;32m[K                               ^[m[K
make[2]: *** [CMakeFiles/costmap_2d.dir/src/costmap_2d_ros.cpp.o] Error 1
make[2]: *** Waiting for unfinished jobs....
make[2]: *** [CMakeFiles/costmap_2d.dir/src/observation_buffer.cpp.o] Error 1
make[1]: *** [CMakeFiles/costmap_2d.dir/all] Error 2
make: *** [all] Error 2
